2025-Winter/Mechatronics/Homework 7/175.csv

X,CH1,CH2,Start,Increment,
Sequence,Volt,Volt,-3.001200e-02,5.000000e-05
0,1.20e-01,-8.00e-01,
1,2.40e-01,1.60e+00,
2,2.00e-01,0.00e+00,
3,3.20e-01,1.60e+00,
4,2.80e-01,8.00e-01,
5,3.60e-01,2.40e+00,
6,3.60e-01,8.00e-01,
7,4.80e-01,3.20e+00,
8,4.00e-01,1.60e+00,
9,5.20e-01,4.00e+00,
10,4.40e-01,2.40e+00,
11,5.60e-01,4.00e+00,
12,5.20e-01,3.20e+00,
13,6.00e-01,4.80e+00,
14,5.20e-01,3.20e+00,
15,6.40e-01,4.80e+00,
16,5.60e-01,3.20e+00,
17,6.80e-01,4.80e+00,
18,6.80e-01,4.00e+00,
19,5.60e-01,4.80e+00,
20,6.00e-01,4.00e+00,
21,6.80e-01,5.60e+00,
22,6.00e-01,5.60e+00,
23,7.20e-01,4.00e+00,
24,7.20e-01,4.00e+00,
25,6.40e-01,5.60e+00,
26,6.40e-01,4.00e+00,
27,7.60e-01,5.60e+00,
28,6.40e-01,5.60e+00,
29,7.20e-01,4.00e+00,
30,7.20e-01,4.00e+00,
31,6.40e-01,5.60e+00,
32,7.20e-01,4.00e+00,
33,6.00e-01,5.60e+00,
34,6.00e-01,5.60e+00,
35,6.80e-01,4.00e+00,
36,6.80e-01,4.80e+00,
37,6.00e-01,4.00e+00,
38,5.60e-01,4.80e+00,
39,6.80e-01,3.20e+00,
40,6.40e-01,3.20e+00,
41,5.20e-01,4.80e+00,
42,6.00e-01,4.00e+00,
43,4.80e-01,2.40e+00,
44,5.60e-01,2.40e+00,
45,4.40e-01,4.00e+00,
46,5.20e-01,3.20e+00,
47,3.60e-01,1.60e+00,
48,4.40e-01,3.20e+00,
49,3.20e-01,8.00e-01,
50,3.60e-01,2.40e+00,
51,2.40e-01,0.00e+00,
52,2.80e-01,0.00e+00,
53,1.60e-01,1.60e+00,
54,2.40e-01,8.00e-01,
55,8.00e-02,-8.00e-01,
56,1.60e-01,0.00e+00,
57,4.00e-02,-1.60e+00,
58,8.00e-02,0.00e+00,
59,-4.00e-02,-2.40e+00,
60,4.00e-02,-8.00e-01,
61,-1.20e-01,-3.20e+00,
62,-4.00e-02,-1.60e+00,
63,-2.00e-01,-4.00e+00,
64,-1.20e-01,-4.00e+00,
65,-2.40e-01,-2.40e+00,
66,-2.00e-01,-4.80e+00,
67,-3.20e-01,-3.20e+00,
68,-2.40e-01,-3.20e+00,
69,-3.60e-01,-5.60e+00,
70,-2.80e-01,-4.00e+00,
71,-4.00e-01,-6.40e+00,
72,-3.60e-01,-6.40e+00,
73,-4.40e-01,-4.80e+00,
74,-4.00e-01,-4.80e+00,
75,-5.20e-01,-7.20e+00,
76,-4.40e-01,-7.20e+00,
77,-5.60e-01,-5.60e+00,
78,-4.80e-01,-6.40e+00,
79,-6.00e-01,-8.00e+00,
80,-6.00e-01,-8.00e+00,
81,-5.20e-01,-6.40e+00,
82,-5.60e-01,-8.00e+00,
83,-6.40e-01,-6.40e+00,
84,-6.40e-01,-7.20e+00,
85,-5.60e-01,-8.80e+00,
86,-6.40e-01,-7.20e+00,
87,-5.60e-01,-8.80e+00,
88,-6.40e-01,-8.80e+00,
89,-5.60e-01,-7.20e+00,
90,-6.40e-01,-8.00e+00,
91,-5.20e-01,-6.40e+00,
92,-5.60e-01,-8.00e+00,
93,-4.80e-01,-5.60e+00,
94,-5.20e-01,-7.20e+00,
95,-4.40e-01,-5.60e+00,
96,-4.80e-01,-7.20e+00,
97,-3.60e-01,-4.80e+00,
98,-4.40e-01,-6.40e+00,
99,-3.20e-01,-4.80e+00,
100,-4.00e-01,-5.60e+00,
101,-2.40e-01,-4.00e+00,
102,-3.20e-01,-5.60e+00,
103,-2.00e-01,-3.20e+00,
104,-2.40e-01,-4.80e+00,
105,-1.20e-01,-2.40e+00,
106,-2.00e-01,-4.00e+00,
107,-4.00e-02,-1.60e+00,
108,-1.20e-01,-3.20e+00,
109,0.00e+00,-8.00e-01,
110,-4.00e-02,-2.40e+00,
111,8.00e-02,-8.00e-01,
112,4.00e-02,-1.60e+00,
113,1.60e-01,0.00e+00,
114,8.00e-02,-8.00e-01,
115,2.40e-01,8.00e-01,
116,1.60e-01,0.00e+00,
117,2.80e-01,1.60e+00,
118,2.80e-01,0.00e+00,
119,3.60e-01,2.40e+00,
120,2.80e-01,8.00e-01,
121,4.40e-01,3.20e+00,
122,4.00e-01,1.60e+00,
123,5.20e-01,3.20e+00,
124,4.40e-01,2.40e+00,
125,5.60e-01,4.00e+00,
126,4.80e-01,2.40e+00,
127,6.00e-01,4.80e+00,
128,5.20e-01,4.80e+00,
129,6.40e-01,3.20e+00,
130,5.60e-01,3.20e+00,
131,6.40e-01,4.80e+00,
132,5.60e-01,3.20e+00,
133,6.80e-01,4.80e+00,
134,6.00e-01,4.00e+00,
135,6.80e-01,5.60e+00,
136,6.00e-01,4.00e+00,
137,7.20e-01,5.60e+00,
138,7.20e-01,4.00e+00,
139,6.00e-01,5.60e+00,
140,6.40e-01,4.00e+00,
141,7.20e-01,5.60e+00,
142,6.40e-01,5.60e+00,
143,7.60e-01,4.00e+00,
144,7.20e-01,5.60e+00,
145,6.40e-01,4.00e+00,
146,7.20e-01,4.00e+00,
147,6.00e-01,5.60e+00,
148,6.00e-01,5.60e+00,
149,6.80e-01,4.00e+00,
150,6.80e-01,5.60e+00,
151,6.00e-01,4.00e+00,
152,6.80e-01,4.80e+00,
153,5.60e-01,3.20e+00,
154,6.40e-01,4.80e+00,
155,5.20e-01,3.20e+00,
156,6.00e-01,4.80e+00,
157,4.80e-01,2.40e+00,
158,5.60e-01,4.00e+00,
159,4.40e-01,2.40e+00,
160,5.20e-01,3.20e+00,
161,4.00e-01,1.60e+00,
162,4.40e-01,3.20e+00,
163,3.20e-01,8.00e-01,
164,3.60e-01,8.00e-01,
165,2.40e-01,2.40e+00,
166,2.80e-01,0.00e+00,
167,1.60e-01,1.60e+00,
168,2.40e-01,8.00e-01,
169,1.20e-01,-8.00e-01,
170,1.60e-01,8.00e-01,
171,4.00e-02,-1.60e+00,
172,8.00e-02,0.00e+00,
173,-4.00e-02,-2.40e+00,
174,4.00e-02,-8.00e-01,
175,-8.00e-02,-3.20e+00,
176,-4.00e-02,-3.20e+00,
177,-1.60e-01,-1.60e+00,
178,-1.20e-01,-4.00e+00,
179,-2.40e-01,-2.40e+00,
180,-1.60e-01,-3.20e+00,
181,-2.80e-01,-4.80e+00,
182,-2.40e-01,-3.20e+00,
183,-3.60e-01,-5.60e+00,
184,-2.80e-01,-4.00e+00,
185,-4.00e-01,-5.60e+00,
186,-3.20e-01,-4.80e+00,
187,-4.40e-01,-6.40e+00,
188,-3.60e-01,-4.80e+00,
189,-4.80e-01,-7.20e+00,
190,-4.40e-01,-7.20e+00,
191,-5.20e-01,-5.60e+00,
192,-4.80e-01,-6.40e+00,
193,-5.60e-01,-8.00e+00,
194,-5.20e-01,-8.00e+00,
195,-6.00e-01,-6.40e+00,
196,-5.20e-01,-8.00e+00,
197,-6.40e-01,-6.40e+00,
198,-5.60e-01,-8.00e+00,
199,-6.40e-01,-7.20e+00,
200,-6.40e-01,-8.80e+00,
201,-5.60e-01,-7.20e+00,
202,-6.40e-01,-8.80e+00,
203,-5.60e-01,-7.20e+00,
204,-6.40e-01,-8.00e+00,
205,-5.20e-01,-6.40e+00,
206,-6.00e-01,-8.00e+00,
207,-4.80e-01,-7.20e+00,
208,-5.60e-01,-7.20e+00,
209,-4.40e-01,-5.60e+00,
210,-5.20e-01,-7.20e+00,
211,-4.00e-01,-4.80e+00,
212,-4.40e-01,-6.40e+00,
213,-3.20e-01,-4.80e+00,
214,-4.00e-01,-6.40e+00,
215,-2.80e-01,-4.00e+00,
216,-3.60e-01,-5.60e+00,
217,-2.00e-01,-3.20e+00,
218,-2.80e-01,-4.80e+00,
219,-1.60e-01,-2.40e+00,
220,-2.00e-01,-4.00e+00,
221,-8.00e-02,-2.40e+00,
222,-1.20e-01,-3.20e+00,
223,0.00e+00,-1.60e+00,
224,-4.00e-02,-2.40e+00,
225,8.00e-02,-8.00e-01,
226,0.00e+00,-1.60e+00,
227,1.60e-01,0.00e+00,
228,8.00e-02,-8.00e-01,
229,2.00e-01,8.00e-01,
230,1.60e-01,0.00e+00,
231,2.80e-01,1.60e+00,
232,2.00e-01,0.00e+00,
233,4.00e-01,2.40e+00,
234,2.80e-01,8.00e-01,
235,4.40e-01,2.40e+00,
236,3.60e-01,1.60e+00,
237,5.20e-01,3.20e+00,
238,4.40e-01,2.40e+00,
239,5.20e-01,4.00e+00,
240,4.80e-01,2.40e+00,
241,6.00e-01,4.00e+00,
242,5.20e-01,3.20e+00,
243,6.40e-01,4.80e+00,
244,5.60e-01,3.20e+00,
245,6.40e-01,4.80e+00,
246,5.60e-01,4.80e+00,
247,6.80e-01,3.20e+00,
248,6.00e-01,4.80e+00,
249,6.80e-01,4.00e+00,
250,6.00e-01,4.00e+00,
251,6.80e-01,5.60e+00,
252,7.20e-01,4.00e+00,
253,6.00e-01,5.60e+00,
254,7.20e-01,4.00e+00,
255,6.40e-01,5.60e+00,
256,6.40e-01,4.00e+00,
257,7.20e-01,5.60e+00,
258,6.40e-01,5.60e+00,
259,7.20e-01,4.00e+00,
260,6.40e-01,4.00e+00,
261,7.20e-01,5.60e+00,
262,6.00e-01,5.60e+00,
263,7.20e-01,4.00e+00,
264,6.00e-01,4.00e+00,
265,6.80e-01,5.60e+00,
266,6.80e-01,4.80e+00,
267,5.60e-01,3.20e+00,
268,5.60e-01,4.80e+00,
269,6.40e-01,3.20e+00,
270,6.40e-01,3.20e+00,
271,4.80e-01,4.80e+00,
272,5.60e-01,4.00e+00,
273,4.40e-01,2.40e+00,
274,5.20e-01,4.00e+00,
275,4.00e-01,1.60e+00,
276,4.80e-01,1.60e+00,
277,3.60e-01,3.20e+00,
278,4.00e-01,2.40e+00,
279,2.80e-01,8.00e-01,
280,3.20e-01,1.60e+00,
281,2.00e-01,0.00e+00,
282,2.40e-01,1.60e+00,
283,1.20e-01,-8.00e-01,
284,2.00e-01,8.00e-01,
285,4.00e-02,-1.60e+00,
286,1.20e-01,0.00e+00,
287,0.00e+00,-2.40e+00,
288,4.00e-02,-2.40e+00,
289,-8.00e-02,-8.00e-01,
290,0.00e+00,-3.20e+00,
291,-1.60e-01,-1.60e+00,
292,-8.00e-02,-2.40e+00,
293,-2.00e-01,-4.00e+00,
294,-1.60e-01,-2.40e+00,
295,-2.80e-01,-4.80e+00,
296,-2.00e-01,-3.20e+00,
297,-3.20e-01,-5.60e+00,
298,-2.80e-01,-5.60e+00,
299,-4.00e-01,-4.00e+00,
300,-3.20e-01,-4.80e+00,
301,-4.40e-01,-6.40e+00,
302,-3.60e-01,-4.80e+00,
303,-4.80e-01,-7.20e+00,
304,-4.40e-01,-7.20e+00,
305,-5.20e-01,-5.60e+00,
306,-4.80e-01,-5.60e+00,
307,-5.60e-01,-8.00e+00,
308,-4.80e-01,-8.00e+00,
309,-6.00e-01,-6.40e+00,
310,-5.20e-01,-8.00e+00,
311,-6.40e-01,-6.40e+00,
312,-5.60e-01,-8.00e+00,
313,-6.40e-01,-7.20e+00,
314,-6.40e-01,-7.20e+00,
315,-5.60e-01,-8.80e+00,
316,-6.40e-01,-8.80e+00,
317,-5.60e-01,-7.20e+00,
318,-6.40e-01,-8.80e+00,
319,-5.60e-01,-6.40e+00,
320,-5.20e-01,-8.00e+00,
321,-6.00e-01,-6.40e+00,
322,-5.60e-01,-8.00e+00,
323,-4.40e-01,-5.60e+00,
324,-5.20e-01,-7.20e+00,
325,-4.00e-01,-5.60e+00,
326,-4.80e-01,-6.40e+00,
327,-3.60e-01,-4.80e+00,
328,-4.00e-01,-6.40e+00,
329,-2.80e-01,-4.00e+00,
330,-3.60e-01,-5.60e+00,
331,-2.40e-01,-3.20e+00,
332,-2.80e-01,-3.20e+00,
333,-1.60e-01,-4.80e+00,
334,-2.40e-01,-4.00e+00,
335,-8.00e-02,-2.40e+00,
336,-1.60e-01,-3.20e+00,
337,-4.00e-02,-1.60e+00,
338,-8.00e-02,-3.20e+00,
339,4.00e-02,-8.00e-01,
340,0.00e+00,-2.40e+00,
341,1.20e-01,0.00e+00,
342,4.00e-02,-1.60e+00,
343,2.00e-01,8.00e-01,
344,1.20e-01,-8.00e-01,
345,2.80e-01,1.60e+00,
346,2.00e-01,0.00e+00,
347,3.20e-01,2.40e+00,
348,2.80e-01,8.00e-01,
349,4.40e-01,2.40e+00,
350,3.60e-01,1.60e+00,
351,4.80e-01,3.20e+00,
352,4.00e-01,1.60e+00,
353,5.20e-01,4.00e+00,
354,4.80e-01,4.00e+00,
355,6.00e-01,2.40e+00,
356,5.20e-01,3.20e+00,
357,6.40e-01,4.80e+00,
358,6.40e-01,3.20e+00,
359,5.60e-01,4.80e+00,
360,5.60e-01,4.80e+00,
361,6.80e-01,3.20e+00,
362,6.80e-01,4.00e+00,
363,5.60e-01,5.60e+00,
364,6.00e-01,5.60e+00,
365,6.80e-01,4.00e+00,
366,6.00e-01,5.60e+00,
367,7.20e-01,4.00e+00,
368,6.40e-01,4.80e+00,
369,7.20e-01,4.00e+00,
370,7.20e-01,4.00e+00,
371,6.40e-01,5.60e+00,
372,6.40e-01,5.60e+00,
373,7.20e-01,4.00e+00,
374,7.20e-01,4.00e+00,
375,6.00e-01,5.60e+00,
376,6.00e-01,4.00e+00,
377,7.20e-01,5.60e+00,
378,6.00e-01,5.60e+00,
379,6.80e-01,4.00e+00,
380,6.80e-01,4.00e+00,
381,5.60e-01,4.80e+00,
382,5.60e-01,4.80e+00,
383,6.40e-01,3.20e+00,
384,6.40e-01,3.20e+00,
385,5.20e-01,4.80e+00,
386,5.60e-01,4.00e+00,
387,4.80e-01,2.40e+00,
388,5.20e-01,4.00e+00,
389,4.00e-01,1.60e+00,
390,4.80e-01,3.20e+00,
391,3.60e-01,1.60e+00,
392,4.00e-01,2.40e+00,
393,2.80e-01,8.00e-01,
394,3.20e-01,2.40e+00,
395,2.00e-01,0.00e+00,
396,2.80e-01,1.60e+00,
397,1.20e-01,-8.00e-01,
398,2.00e-01,8.00e-01,
399,8.00e-02,-1.60e+00,
400,1.20e-01,-1.60e+00,
401,0.00e+00,0.00e+00,
402,4.00e-02,-8.00e-01,
403,-8.00e-02,-2.40e+00,
404,0.00e+00,-1.60e+00,
405,-1.60e-01,-3.20e+00,
406,-8.00e-02,-1.60e+00,
407,-2.00e-01,-4.00e+00,
408,-1.20e-01,-2.40e+00,
409,-2.40e-01,-4.80e+00,
410,-2.00e-01,-4.80e+00,
411,-3.20e-01,-3.20e+00,
412,-2.40e-01,-4.00e+00,
413,-3.60e-01,-5.60e+00,
414,-3.20e-01,-4.00e+00,
415,-4.40e-01,-6.40e+00,
416,-3.60e-01,-6.40e+00,
417,-4.80e-01,-4.80e+00,
418,-4.00e-01,-5.60e+00,
419,-5.20e-01,-7.20e+00,
420,-4.40e-01,-7.20e+00,
421,-5.60e-01,-5.60e+00,
422,-4.80e-01,-6.40e+00,
423,-6.00e-01,-8.00e+00,
424,-6.00e-01,-8.00e+00,
425,-5.20e-01,-6.40e+00,
426,-5.20e-01,-6.40e+00,
427,-6.40e-01,-8.80e+00,
428,-6.40e-01,-8.80e+00,
429,-5.60e-01,-7.20e+00,
430,-6.40e-01,-8.80e+00,
431,-5.60e-01,-7.20e+00,
432,-5.60e-01,-8.80e+00,
433,-6.40e-01,-7.20e+00,
434,-6.00e-01,-8.00e+00,
435,-5.20e-01,-6.40e+00,
436,-5.60e-01,-8.00e+00,
437,-4.80e-01,-5.60e+00,
438,-5.20e-01,-7.20e+00,
439,-4.00e-01,-5.60e+00,
440,-4.80e-01,-7.20e+00,
441,-3.60e-01,-4.80e+00,
442,-4.40e-01,-6.40e+00,
443,-3.20e-01,-4.00e+00,
444,-3.60e-01,-4.00e+00,
445,-2.40e-01,-5.60e+00,
446,-3.20e-01,-4.80e+00,
447,-1.60e-01,-3.20e+00,
448,-2.40e-01,-4.80e+00,
449,-1.20e-01,-3.20e+00,
450,-1.60e-01,-4.00e+00,
451,-4.00e-02,-1.60e+00,
452,-8.00e-02,-3.20e+00,
453,4.00e-02,-8.00e-01,
454,-4.00e-02,-2.40e+00,
455,1.20e-01,0.00e+00,
456,8.00e-02,-1.60e+00,
457,2.00e-01,8.00e-01,
458,1.20e-01,8.00e-01,
459,2.40e-01,-8.00e-01,
460,1.60e-01,0.00e+00,
461,3.20e-01,1.60e+00,
462,2.40e-01,8.00e-01,
463,3.60e-01,2.40e+00,
464,4.40e-01,8.00e-01,
465,3.60e-01,3.20e+00,
466,4.00e-01,1.60e+00,
467,5.20e-01,4.00e+00,
468,4.40e-01,2.40e+00,
469,5.60e-01,4.00e+00,
470,4.80e-01,3.20e+00,
471,6.00e-01,4.80e+00,
472,5.60e-01,3.20e+00,
473,6.40e-01,4.80e+00,
474,5.60e-01,3.20e+00,
475,6.80e-01,4.80e+00,
476,6.00e-01,4.80e+00,
477,6.80e-01,4.00e+00,
478,6.00e-01,4.00e+00,
479,7.20e-01,5.60e+00,
480,6.00e-01,4.00e+00,
481,7.20e-01,5.60e+00,
482,6.40e-01,4.80e+00,
483,7.20e-01,4.00e+00,
484,6.40e-01,4.00e+00,
485,7.60e-01,5.60e+00,
486,6.40e-01,5.60e+00,
487,7.20e-01,4.00e+00,
488,7.20e-01,4.00e+00,
489,6.40e-01,5.60e+00,
490,7.20e-01,4.00e+00,
491,6.00e-01,5.60e+00,
492,6.00e-01,5.60e+00,
493,6.80e-01,4.00e+00,
494,6.00e-01,5.60e+00,
495,6.80e-01,4.00e+00,
496,6.80e-01,4.80e+00,
497,5.60e-01,3.20e+00,
498,6.40e-01,3.20e+00,
499,5.20e-01,4.80e+00,
500,6.00e-01,4.80e+00,
501,4.80e-01,2.40e+00,
502,5.60e-01,2.40e+00,
503,4.40e-01,4.00e+00,
504,4.80e-01,3.20e+00,
505,3.60e-01,1.60e+00,
506,4.40e-01,3.20e+00,
507,2.80e-01,8.00e-01,
508,3.60e-01,2.40e+00,
509,2.40e-01,0.00e+00,
510,2.80e-01,0.00e+00,
511,1.60e-01,1.60e+00,
512,2.40e-01,8.00e-01,
513,8.00e-02,-8.00e-01,
514,1.60e-01,8.00e-01,
515,4.00e-02,-1.60e+00,
516,8.00e-02,0.00e+00,
517,-4.00e-02,-2.40e+00,
518,4.00e-02,-8.00e-01,
519,-1.20e-01,-3.20e+00,
520,-4.00e-02,-1.60e+00,
521,-2.00e-01,-4.00e+00,
522,-1.20e-01,-2.40e+00,
523,-2.40e-01,-4.80e+00,
524,-1.60e-01,-4.80e+00,
525,-3.20e-01,-3.20e+00,
526,-2.40e-01,-3.20e+00,
527,-3.60e-01,-5.60e+00,
528,-2.80e-01,-4.80e+00,
529,-4.00e-01,-6.40e+00,
530,-3.60e-01,-6.40e+00,
531,-4.40e-01,-4.80e+00,
532,-4.00e-01,-4.80e+00,
533,-5.20e-01,-7.20e+00,
534,-4.40e-01,-7.20e+00,
535,-5.60e-01,-5.60e+00,
536,-5.60e-01,-6.40e+00,
537,-4.80e-01,-8.00e+00,
538,-5.20e-01,-8.00e+00,
539,-6.00e-01,-6.40e+00,
540,-5.60e-01,-8.00e+00,
541,-6.40e-01,-6.40e+00,
542,-6.40e-01,-7.20e+00,
543,-5.60e-01,-8.80e+00,
544,-5.60e-01,-8.80e+00,
545,-6.40e-01,-7.20e+00,
546,-5.60e-01,-7.20e+00,
547,-6.40e-01,-8.80e+00,
548,-6.00e-01,-8.00e+00,
549,-5.20e-01,-6.40e+00,
550,-6.00e-01,-8.00e+00,
551,-4.80e-01,-6.40e+00,
552,-5.60e-01,-7.20e+00,
553,-4.40e-01,-5.60e+00,
554,-4.80e-01,-7.20e+00,
555,-3.60e-01,-4.80e+00,
556,-4.40e-01,-6.40e+00,
557,-3.20e-01,-4.80e+00,
558,-4.00e-01,-5.60e+00,
559,-2.40e-01,-4.00e+00,
560,-3.20e-01,-5.60e+00,
561,-2.00e-01,-3.20e+00,
562,-2.40e-01,-4.80e+00,
563,-1.20e-01,-2.40e+00,
564,-2.00e-01,-4.00e+00,
565,-4.00e-02,-1.60e+00,
566,-1.20e-01,-3.20e+00,
567,0.00e+00,-8.00e-01,
568,-4.00e-02,-2.40e+00,
569,8.00e-02,0.00e+00,
570,4.00e-02,0.00e+00,
571,1.60e-01,-1.60e+00,
572,8.00e-02,-8.00e-01,
573,2.40e-01,8.00e-01,
574,1.60e-01,0.00e+00,
575,2.80e-01,1.60e+00,
576,2.40e-01,0.00e+00,
577,3.60e-01,2.40e+00,
578,3.20e-01,8.00e-01,
579,4.40e-01,3.20e+00,
580,4.00e-01,3.20e+00,
581,5.20e-01,1.60e+00,
582,4.40e-01,2.40e+00,
583,5.60e-01,4.00e+00,
584,4.80e-01,2.40e+00,
585,6.00e-01,4.80e+00,
586,5.20e-01,4.80e+00,
587,6.40e-01,3.20e+00,
588,5.60e-01,3.20e+00,
589,6.80e-01,4.80e+00,
590,5.60e-01,4.00e+00,
591,6.80e-01,4.80e+00,
592,6.80e-01,4.00e+00,
593,6.00e-01,5.60e+00,
594,6.00e-01,5.60e+00,
595,7.20e-01,4.00e+00,
596,6.40e-01,4.00e+00,
597,7.20e-01,5.60e+00,
598,6.40e-01,4.00e+00,
599,7.20e-01,5.60e+00,
600,6.40e-01,5.60e+00,
601,7.20e-01,4.00e+00,
602,6.40e-01,5.60e+00,
603,7.20e-01,4.00e+00,
604,7.20e-01,4.00e+00,
605,6.00e-01,5.60e+00,
606,6.00e-01,5.60e+00,
607,6.80e-01,4.00e+00,
608,6.00e-01,4.80e+00,
609,6.80e-01,4.00e+00,
610,6.80e-01,4.80e+00,
611,5.60e-01,3.20e+00,
612,6.40e-01,3.20e+00,
613,5.20e-01,4.80e+00,
614,6.00e-01,4.80e+00,
615,4.80e-01,2.40e+00,
616,5.60e-01,4.00e+00,
617,4.40e-01,2.40e+00,
618,5.20e-01,3.20e+00,
619,3.60e-01,1.60e+00,
620,4.40e-01,3.20e+00,
621,3.20e-01,8.00e-01,
622,3.60e-01,8.00e-01,
623,2.80e-01,2.40e+00,
624,3.20e-01,1.60e+00,
625,1.60e-01,0.00e+00,
626,2.40e-01,8.00e-01,
627,8.00e-02,-8.00e-01,
628,1.60e-01,8.00e-01,
629,4.00e-02,-1.60e+00,
630,1.20e-01,0.00e+00,
631,-4.00e-02,-2.40e+00,
632,4.00e-02,-8.00e-01,
633,-8.00e-02,-3.20e+00,
634,-4.00e-02,-3.20e+00,
635,-1.60e-01,-1.60e+00,
636,-8.00e-02,-2.40e+00,
637,-2.40e-01,-4.00e+00,
638,-1.60e-01,-2.40e+00,
639,-2.80e-01,-4.80e+00,
640,-2.40e-01,-3.20e+00,
641,-3.60e-01,-5.60e+00,
642,-2.80e-01,-5.60e+00,
643,-4.00e-01,-4.00e+00,
644,-3.20e-01,-5.60e+00,
645,-4.40e-01,-6.40e+00,
646,-3.60e-01,-4.80e+00,
647,-4.80e-01,-7.20e+00,
648,-4.40e-01,-7.20e+00,
649,-5.20e-01,-5.60e+00,
650,-4.80e-01,-6.40e+00,
651,-5.60e-01,-8.00e+00,
652,-5.20e-01,-8.00e+00,
653,-6.00e-01,-7.20e+00,
654,-5.20e-01,-8.00e+00,
655,-6.40e-01,-6.40e+00,
656,-5.60e-01,-8.00e+00,
657,-6.40e-01,-7.20e+00,
658,-6.40e-01,-8.00e+00,
659,-5.60e-01,-8.80e+00,
660,-6.40e-01,-8.80e+00,
661,-5.60e-01,-7.20e+00,
662,-6.40e-01,-8.00e+00,
663,-5.20e-01,-6.40e+00,
664,-6.00e-01,-8.00e+00,
665,-4.80e-01,-6.40e+00,
666,-5.60e-01,-7.20e+00,
667,-4.40e-01,-5.60e+00,
668,-5.20e-01,-7.20e+00,
669,-4.00e-01,-5.60e+00,
670,-4.40e-01,-6.40e+00,
671,-3.20e-01,-4.80e+00,
672,-4.00e-01,-6.40e+00,
673,-2.80e-01,-4.00e+00,
674,-3.20e-01,-5.60e+00,
675,-2.00e-01,-3.20e+00,
676,-2.80e-01,-4.80e+00,
677,-1.60e-01,-2.40e+00,
678,-2.00e-01,-4.00e+00,
679,-8.00e-02,-2.40e+00,
680,-1.20e-01,-1.60e+00,
681,0.00e+00,-3.20e+00,
682,-8.00e-02,-2.40e+00,
683,8.00e-02,-8.00e-01,
684,0.00e+00,-1.60e+00,
685,1.60e-01,0.00e+00,
686,8.00e-02,-1.60e+00,
687,2.00e-01,8.00e-01,
688,1.60e-01,-8.00e-01,
689,2.80e-01,1.60e+00,
690,2.00e-01,0.00e+00,
691,3.60e-01,2.40e+00,
692,2.80e-01,8.00e-01,
693,4.40e-01,3.20e+00,
694,3.60e-01,3.20e+00,
695,4.80e-01,1.60e+00,
696,4.40e-01,2.40e+00,
697,5.60e-01,4.00e+00,
698,4.80e-01,2.40e+00,
699,6.00e-01,4.00e+00,
700,5.20e-01,3.20e+00,
701,6.40e-01,4.80e+00,
702,6.40e-01,4.80e+00,
703,5.60e-01,3.20e+00,
704,5.60e-01,4.80e+00,
705,6.80e-01,4.00e+00,
706,6.80e-01,4.00e+00,
707,6.00e-01,5.60e+00,
708,6.00e-01,4.00e+00,
709,7.20e-01,5.60e+00,
710,6.00e-01,4.00e+00,
711,7.20e-01,5.60e+00,
712,7.20e-01,4.00e+00,
713,6.40e-01,5.60e+00,
714,6.40e-01,5.60e+00,
715,7.20e-01,4.00e+00,
716,6.40e-01,5.60e+00,
717,7.20e-01,4.00e+00,
718,7.20e-01,4.00e+00,
719,6.00e-01,5.60e+00,
720,6.00e-01,5.60e+00,
721,7.20e-01,4.00e+00,
722,6.00e-01,4.00e+00,
723,6.80e-01,5.60e+00,
724,6.80e-01,4.80e+00,
725,5.60e-01,3.20e+00,
726,5.60e-01,3.20e+00,
727,6.40e-01,4.80e+00,
728,6.40e-01,3.20e+00,
729,5.20e-01,4.80e+00,
730,5.60e-01,4.00e+00,
731,4.40e-01,2.40e+00,
732,5.20e-01,4.00e+00,
733,4.00e-01,1.60e+00,
734,4.80e-01,1.60e+00,
735,3.60e-01,3.20e+00,
736,4.00e-01,2.40e+00,
737,2.80e-01,8.00e-01,
738,3.20e-01,1.60e+00,
739,2.00e-01,0.00e+00,
740,2.40e-01,1.60e+00,
741,1.20e-01,-8.00e-01,
742,2.00e-01,8.00e-01,
743,4.00e-02,-1.60e+00,
744,1.20e-01,0.00e+00,
745,0.00e+00,-2.40e+00,
746,4.00e-02,-2.40e+00,
747,-8.00e-02,-8.00e-01,
748,0.00e+00,-1.60e+00,
749,-1.60e-01,-3.20e+00,
750,-8.00e-02,-2.40e+00,
751,-2.00e-01,-4.00e+00,
752,-1.60e-01,-2.40e+00,
753,-2.80e-01,-4.80e+00,
754,-2.00e-01,-3.20e+00,
755,-3.20e-01,-5.60e+00,
756,-2.80e-01,-5.60e+00,
757,-4.00e-01,-4.00e+00,
758,-3.20e-01,-4.80e+00,
759,-4.40e-01,-6.40e+00,
760,-3.60e-01,-4.80e+00,
761,-4.80e-01,-7.20e+00,
762,-4.00e-01,-6.40e+00,
763,-5.20e-01,-7.20e+00,
764,-4.40e-01,-5.60e+00,
765,-5.60e-01,-8.00e+00,
766,-4.80e-01,-8.00e+00,
767,-6.00e-01,-7.20e+00,
768,-6.00e-01,-8.00e+00,
769,-5.20e-01,-6.40e+00,
770,-5.60e-01,-8.00e+00,
771,-6.40e-01,-6.40e+00,
772,-6.40e-01,-7.20e+00,
773,-5.60e-01,-8.80e+00,
774,-6.40e-01,-8.80e+00,
775,-5.60e-01,-7.20e+00,
776,-6.40e-01,-8.80e+00,
777,-5.20e-01,-6.40e+00,
778,-6.00e-01,-8.00e+00,
779,-4.80e-01,-6.40e+00,
780,-5.60e-01,-8.00e+00,
781,-4.40e-01,-5.60e+00,
782,-5.20e-01,-7.20e+00,
783,-4.00e-01,-5.60e+00,
784,-4.80e-01,-6.40e+00,
785,-3.60e-01,-4.80e+00,
786,-4.00e-01,-6.40e+00,
787,-2.80e-01,-4.00e+00,
788,-3.60e-01,-5.60e+00,
789,-2.00e-01,-3.20e+00,
790,-2.80e-01,-3.20e+00,
791,-1.60e-01,-4.80e+00,
792,-2.40e-01,-4.00e+00,
793,-8.00e-02,-2.40e+00,
794,-1.60e-01,-3.20e+00,
795,0.00e+00,-1.60e+00,
796,-8.00e-02,-2.40e+00,
797,4.00e-02,-8.00e-01,
798,0.00e+00,-2.40e+00,
799,1.20e-01,0.00e+00,
800,4.00e-02,-1.60e+00,
801,2.00e-01,8.00e-01,
802,1.20e-01,-8.00e-01,
803,2.80e-01,1.60e+00,
804,2.00e-01,0.00e+00,
805,3.20e-01,2.40e+00,
806,2.80e-01,8.00e-01,
807,4.40e-01,2.40e+00,
808,3.60e-01,1.60e+00,
809,4.80e-01,3.20e+00,
810,4.00e-01,1.60e+00,
811,5.60e-01,4.00e+00,
812,4.80e-01,4.00e+00,
813,6.00e-01,2.40e+00,
814,5.20e-01,3.20e+00,
815,6.00e-01,4.80e+00,
816,5.60e-01,3.20e+00,
817,6.40e-01,4.80e+00,
818,5.60e-01,4.80e+00,
819,6.80e-01,3.20e+00,
820,6.00e-01,4.00e+00,
821,6.80e-01,4.80e+00,
822,6.80e-01,4.00e+00,
823,6.00e-01,5.60e+00,
824,6.00e-01,4.00e+00,
825,7.20e-01,5.60e+00,
826,7.20e-01,4.00e+00,
827,6.40e-01,5.60e+00,
828,6.40e-01,4.00e+00,
829,7.60e-01,5.60e+00,
830,6.40e-01,5.60e+00,
831,7.20e-01,4.00e+00,
832,6.40e-01,5.60e+00,
833,7.20e-01,4.00e+00,
834,7.20e-01,4.00e+00,
835,6.00e-01,5.60e+00,
836,6.00e-01,4.00e+00,
837,6.80e-01,5.60e+00,
