2025-Winter/Mechatronics/Homework 7/75.csv

X,CH1,CH2,Start,Increment,
Sequence,Volt,Volt,-3.001200e-02,5.000000e-05
0,6.80e-01,4.80e+00,
1,7.60e-01,5.60e+00,
2,6.80e-01,5.60e+00,
3,7.60e-01,4.80e+00,
4,6.80e-01,4.80e+00,
5,7.60e-01,6.40e+00,
6,6.80e-01,4.80e+00,
7,7.60e-01,5.60e+00,
8,6.80e-01,4.80e+00,
9,7.60e-01,5.60e+00,
10,7.60e-01,5.60e+00,
11,6.40e-01,4.00e+00,
12,7.20e-01,5.60e+00,
13,6.40e-01,4.00e+00,
14,6.40e-01,4.00e+00,
15,7.20e-01,5.60e+00,
16,6.40e-01,4.80e+00,
17,7.20e-01,4.00e+00,
18,6.40e-01,4.80e+00,
19,7.20e-01,4.00e+00,
20,7.20e-01,4.00e+00,
21,6.40e-01,5.60e+00,
22,7.20e-01,4.00e+00,
23,6.00e-01,5.60e+00,
24,6.00e-01,5.60e+00,
25,6.80e-01,4.00e+00,
26,6.00e-01,5.60e+00,
27,6.80e-01,4.00e+00,
28,6.40e-01,4.80e+00,
29,6.80e-01,4.00e+00,
30,6.80e-01,4.80e+00,
31,5.60e-01,3.20e+00,
32,5.60e-01,4.80e+00,
33,6.40e-01,3.20e+00,
34,6.40e-01,4.80e+00,
35,5.60e-01,3.20e+00,
36,6.40e-01,4.80e+00,
37,5.20e-01,3.20e+00,
38,5.20e-01,4.00e+00,
39,6.00e-01,3.20e+00,
40,5.60e-01,4.00e+00,
41,4.80e-01,2.40e+00,
42,5.60e-01,2.40e+00,
43,4.40e-01,4.00e+00,
44,4.40e-01,4.00e+00,
45,5.20e-01,2.40e+00,
46,5.20e-01,3.20e+00,
47,4.00e-01,1.60e+00,
48,4.80e-01,1.60e+00,
49,3.60e-01,3.20e+00,
50,4.80e-01,3.20e+00,
51,3.60e-01,1.60e+00,
52,4.40e-01,2.40e+00,
53,2.80e-01,8.00e-01,
54,3.20e-01,8.00e-01,
55,3.60e-01,2.40e+00,
56,3.20e-01,2.40e+00,
57,2.40e-01,8.00e-01,
58,3.20e-01,1.60e+00,
59,2.00e-01,0.00e+00,
60,2.80e-01,1.60e+00,
61,2.00e-01,0.00e+00,
62,1.60e-01,1.60e+00,
63,2.40e-01,-8.00e-01,
64,2.00e-01,8.00e-01,
65,1.20e-01,-8.00e-01,
66,2.00e-01,-8.00e-01,
67,8.00e-02,8.00e-01,
68,1.60e-01,0.00e+00,
69,4.00e-02,-1.60e+00,
70,1.20e-01,-1.60e+00,
71,4.00e-02,0.00e+00,
72,8.00e-02,0.00e+00,
73,0.00e+00,-2.40e+00,
74,8.00e-02,-2.40e+00,
75,-4.00e-02,-8.00e-01,
76,4.00e-02,-2.40e+00,
77,-8.00e-02,-8.00e-01,
78,-8.00e-02,-8.00e-01,
79,0.00e+00,-3.20e+00,
80,-4.00e-02,-1.60e+00,
81,-1.20e-01,-3.20e+00,
82,-4.00e-02,-3.20e+00,
83,-1.60e-01,-1.60e+00,
84,-8.00e-02,-2.40e+00,
85,-2.00e-01,-4.00e+00,
86,-1.20e-01,-4.00e+00,
87,-2.00e-01,-2.40e+00,
88,-1.60e-01,-2.40e+00,
89,-2.40e-01,-4.80e+00,
90,-1.60e-01,-3.20e+00,
91,-2.80e-01,-4.80e+00,
92,-2.00e-01,-4.80e+00,
93,-2.80e-01,-3.20e+00,
94,-2.40e-01,-3.20e+00,
95,-3.20e-01,-5.60e+00,
96,-2.40e-01,-5.60e+00,
97,-3.60e-01,-4.00e+00,
98,-2.80e-01,-5.60e+00,
99,-3.60e-01,-4.00e+00,
100,-3.20e-01,-4.80e+00,
101,-4.00e-01,-5.60e+00,
102,-3.20e-01,-6.40e+00,
103,-4.40e-01,-4.80e+00,
104,-3.60e-01,-6.40e+00,
105,-4.40e-01,-4.80e+00,
106,-3.60e-01,-6.40e+00,
107,-4.80e-01,-4.80e+00,
108,-4.80e-01,-5.60e+00,
109,-4.00e-01,-7.20e+00,
110,-4.40e-01,-7.20e+00,
111,-5.20e-01,-5.60e+00,
112,-5.20e-01,-7.20e+00,
113,-4.40e-01,-5.60e+00,
114,-4.40e-01,-7.20e+00,
115,-5.60e-01,-5.60e+00,
116,-5.60e-01,-6.40e+00,
117,-4.80e-01,-8.00e+00,
118,-4.80e-01,-8.00e+00,
119,-5.60e-01,-6.40e+00,
120,-6.00e-01,-8.00e+00,
121,-5.20e-01,-6.40e+00,
122,-6.00e-01,-8.00e+00,
123,-5.20e-01,-6.40e+00,
124,-5.20e-01,-8.00e+00,
125,-6.40e-01,-6.40e+00,
126,-5.60e-01,-8.00e+00,
127,-6.40e-01,-7.20e+00,
128,-6.40e-01,-8.80e+00,
129,-5.60e-01,-7.20e+00,
130,-6.40e-01,-8.80e+00,
131,-5.60e-01,-7.20e+00,
132,-6.40e-01,-8.80e+00,
133,-5.60e-01,-7.20e+00,
134,-6.00e-01,-8.80e+00,
135,-6.80e-01,-8.00e+00,
136,-6.00e-01,-8.80e+00,
137,-6.80e-01,-8.00e+00,
138,-6.80e-01,-8.80e+00,
139,-6.00e-01,-7.20e+00,
140,-6.80e-01,-8.80e+00,
141,-6.00e-01,-7.20e+00,
142,-6.40e-01,-8.80e+00,
143,-6.00e-01,-7.20e+00,
144,-6.40e-01,-8.80e+00,
145,-5.60e-01,-7.20e+00,
146,-5.60e-01,-8.80e+00,
147,-6.40e-01,-7.20e+00,
148,-6.40e-01,-8.00e+00,
149,-5.60e-01,-6.40e+00,
150,-6.00e-01,-8.00e+00,
151,-5.20e-01,-6.40e+00,
152,-5.20e-01,-8.00e+00,
153,-6.00e-01,-6.40e+00,
154,-5.60e-01,-6.40e+00,
155,-4.80e-01,-8.00e+00,
156,-5.60e-01,-7.20e+00,
157,-4.80e-01,-5.60e+00,
158,-5.20e-01,-7.20e+00,
159,-4.40e-01,-5.60e+00,
160,-5.20e-01,-7.20e+00,
161,-4.40e-01,-5.60e+00,
162,-4.80e-01,-7.20e+00,
163,-4.00e-01,-4.80e+00,
164,-4.80e-01,-6.40e+00,
165,-3.60e-01,-4.80e+00,
166,-4.40e-01,-5.60e+00,
167,-3.60e-01,-6.40e+00,
168,-4.00e-01,-6.40e+00,
169,-3.20e-01,-4.80e+00,
170,-4.00e-01,-5.60e+00,
171,-2.80e-01,-4.00e+00,
172,-2.80e-01,-5.60e+00,
173,-3.60e-01,-4.80e+00,
174,-3.20e-01,-5.60e+00,
175,-2.40e-01,-3.20e+00,
176,-3.20e-01,-4.80e+00,
177,-2.00e-01,-3.20e+00,
178,-2.80e-01,-4.80e+00,
179,-1.60e-01,-3.20e+00,
180,-1.60e-01,-4.00e+00,
181,-2.40e-01,-2.40e+00,
182,-2.00e-01,-2.40e+00,
183,-1.20e-01,-4.00e+00,
184,-1.60e-01,-4.00e+00,
185,-8.00e-02,-1.60e+00,
186,-1.60e-01,-3.20e+00,
187,-4.00e-02,-1.60e+00,
188,-1.20e-01,-3.20e+00,
189,0.00e+00,-1.60e+00,
190,-8.00e-02,-3.20e+00,
191,4.00e-02,-8.00e-01,
192,4.00e-02,-2.40e+00,
193,-4.00e-02,-8.00e-01,
194,-4.00e-02,-2.40e+00,
195,8.00e-02,0.00e+00,
196,0.00e+00,-1.60e+00,
197,1.20e-01,0.00e+00,
198,4.00e-02,0.00e+00,
199,1.60e-01,-1.60e+00,
200,8.00e-02,-8.00e-01,
201,2.00e-01,8.00e-01,
202,2.00e-01,8.00e-01,
203,1.20e-01,-8.00e-01,
204,1.60e-01,-8.00e-01,
205,2.40e-01,8.00e-01,
206,1.60e-01,0.00e+00,
207,2.80e-01,1.60e+00,
208,2.80e-01,0.00e+00,
209,2.00e-01,1.60e+00,
210,2.40e-01,0.00e+00,
211,3.20e-01,2.40e+00,
212,2.80e-01,8.00e-01,
213,4.00e-01,2.40e+00,
214,4.00e-01,8.00e-01,
215,2.80e-01,2.40e+00,
216,3.60e-01,1.60e+00,
217,4.40e-01,3.20e+00,
218,3.60e-01,3.20e+00,
219,4.80e-01,1.60e+00,
220,4.00e-01,3.20e+00,
221,5.20e-01,1.60e+00,
222,4.40e-01,2.40e+00,
223,5.20e-01,4.00e+00,
224,4.40e-01,2.40e+00,
225,5.60e-01,4.00e+00,
226,4.80e-01,2.40e+00,
227,5.60e-01,4.00e+00,
228,4.80e-01,2.40e+00,
229,6.00e-01,4.00e+00,
230,6.00e-01,3.20e+00,
231,5.20e-01,4.80e+00,
232,5.20e-01,4.80e+00,
233,6.40e-01,3.20e+00,
234,6.40e-01,4.80e+00,
235,5.60e-01,3.20e+00,
236,6.40e-01,3.20e+00,
237,5.60e-01,4.80e+00,
238,5.60e-01,4.80e+00,
239,6.80e-01,4.00e+00,
240,6.80e-01,4.80e+00,
241,6.00e-01,4.00e+00,
242,6.80e-01,4.80e+00,
243,6.00e-01,4.00e+00,
244,6.00e-01,4.00e+00,
245,6.80e-01,5.60e+00,
246,6.00e-01,4.00e+00,
247,6.80e-01,5.60e+00,
248,6.00e-01,5.60e+00,
249,7.20e-01,4.00e+00,
250,6.40e-01,4.00e+00,
251,7.20e-01,5.60e+00,
252,7.20e-01,5.60e+00,
253,6.40e-01,4.00e+00,
254,7.20e-01,4.80e+00,
255,6.40e-01,4.00e+00,
256,6.40e-01,4.00e+00,
257,7.20e-01,5.60e+00,
258,7.20e-01,4.00e+00,
259,6.40e-01,5.60e+00,
260,6.40e-01,5.60e+00,
261,7.60e-01,4.00e+00,
262,6.80e-01,4.80e+00,
263,7.60e-01,5.60e+00,
264,7.60e-01,5.60e+00,
265,6.80e-01,4.80e+00,
266,7.60e-01,4.80e+00,
267,6.80e-01,6.40e+00,
268,6.80e-01,4.80e+00,
269,7.60e-01,5.60e+00,
270,7.60e-01,4.80e+00,
271,6.80e-01,5.60e+00,
272,7.60e-01,5.60e+00,
273,6.40e-01,4.00e+00,
274,6.40e-01,5.60e+00,
275,7.60e-01,4.00e+00,
276,6.40e-01,4.00e+00,
277,7.20e-01,5.60e+00,
278,7.20e-01,4.00e+00,
279,6.40e-01,5.60e+00,
280,6.40e-01,4.00e+00,
281,7.20e-01,5.60e+00,
282,6.40e-01,4.00e+00,
283,7.20e-01,5.60e+00,
284,7.20e-01,4.00e+00,
285,6.00e-01,5.60e+00,
286,6.00e-01,5.60e+00,
287,6.80e-01,4.00e+00,
288,6.80e-01,4.00e+00,
289,6.00e-01,5.60e+00,
290,6.00e-01,4.00e+00,
291,6.80e-01,4.80e+00,
292,6.00e-01,4.80e+00,
293,6.80e-01,4.00e+00,
294,5.60e-01,4.80e+00,
295,6.80e-01,3.20e+00,
296,5.60e-01,3.20e+00,
297,6.40e-01,4.00e+00,
298,6.40e-01,3.20e+00,
299,5.20e-01,4.80e+00,
300,6.00e-01,3.20e+00,
301,5.20e-01,4.00e+00,
302,6.00e-01,4.00e+00,
303,4.80e-01,2.40e+00,
304,4.80e-01,2.40e+00,
305,5.60e-01,4.00e+00,
306,5.60e-01,4.00e+00,
307,4.40e-01,2.40e+00,
308,5.20e-01,3.20e+00,
309,4.00e-01,1.60e+00,
310,4.00e-01,1.60e+00,
311,4.80e-01,3.20e+00,
312,4.40e-01,1.60e+00,
313,3.60e-01,3.20e+00,
314,4.40e-01,2.40e+00,
315,3.20e-01,8.00e-01,
316,3.20e-01,8.00e-01,
317,4.00e-01,2.40e+00,
318,4.00e-01,8.00e-01,
319,2.40e-01,2.40e+00,
320,3.20e-01,1.60e+00,
321,2.00e-01,0.00e+00,
322,2.80e-01,0.00e+00,
323,2.00e-01,1.60e+00,
324,2.80e-01,0.00e+00,
325,1.60e-01,1.60e+00,
326,2.40e-01,8.00e-01,
327,1.20e-01,-8.00e-01,
328,2.00e-01,-8.00e-01,
329,1.20e-01,8.00e-01,
330,1.60e-01,0.00e+00,
331,8.00e-02,-1.60e+00,
332,1.60e-01,0.00e+00,
333,4.00e-02,-1.60e+00,
334,1.20e-01,-1.60e+00,
335,0.00e+00,0.00e+00,
336,8.00e-02,-8.00e-01,
337,-4.00e-02,-2.40e+00,
338,-4.00e-02,-2.40e+00,
339,4.00e-02,-8.00e-01,
340,0.00e+00,-2.40e+00,
341,-8.00e-02,-8.00e-01,
342,0.00e+00,-3.20e+00,
343,-1.20e-01,-1.60e+00,
344,-4.00e-02,-3.20e+00,
345,-1.60e-01,-1.60e+00,
346,-8.00e-02,-2.40e+00,
347,-1.60e-01,-4.00e+00,
348,-1.20e-01,-4.00e+00,
349,-2.00e-01,-2.40e+00,
350,-1.20e-01,-4.00e+00,
351,-2.40e-01,-2.40e+00,
352,-1.60e-01,-3.20e+00,
353,-2.80e-01,-4.80e+00,
354,-2.00e-01,-4.80e+00,
355,-2.80e-01,-3.20e+00,
356,-2.00e-01,-4.80e+00,
357,-3.20e-01,-3.20e+00,
358,-2.40e-01,-4.00e+00,
359,-3.60e-01,-5.60e+00,
360,-2.80e-01,-5.60e+00,
361,-3.60e-01,-4.00e+00,
362,-2.80e-01,-5.60e+00,
363,-4.00e-01,-4.00e+00,
364,-3.20e-01,-4.80e+00,
365,-4.00e-01,-6.40e+00,
366,-3.60e-01,-5.60e+00,
367,-4.40e-01,-6.40e+00,
368,-3.60e-01,-6.40e+00,
369,-4.80e-01,-4.80e+00,
370,-4.00e-01,-4.80e+00,
371,-4.80e-01,-7.20e+00,
372,-4.00e-01,-7.20e+00,
373,-5.20e-01,-5.60e+00,
374,-4.40e-01,-7.20e+00,
375,-5.20e-01,-6.40e+00,
376,-4.40e-01,-7.20e+00,
377,-5.60e-01,-5.60e+00,
378,-4.80e-01,-6.40e+00,
379,-5.60e-01,-7.20e+00,
380,-5.60e-01,-6.40e+00,
381,-4.80e-01,-8.00e+00,
382,-5.20e-01,-8.00e+00,
383,-6.00e-01,-6.40e+00,
384,-5.20e-01,-8.00e+00,
385,-6.00e-01,-6.40e+00,
386,-5.20e-01,-8.00e+00,
387,-6.00e-01,-6.40e+00,
388,-5.60e-01,-8.00e+00,
389,-6.40e-01,-7.20e+00,
390,-5.60e-01,-7.20e+00,
391,-6.40e-01,-8.80e+00,
392,-5.60e-01,-7.20e+00,
393,-6.40e-01,-8.80e+00,
394,-6.40e-01,-8.80e+00,
395,-5.60e-01,-7.20e+00,
396,-5.60e-01,-8.80e+00,
397,-6.80e-01,-7.20e+00,
398,-6.00e-01,-8.80e+00,
399,-6.80e-01,-7.20e+00,
400,-6.80e-01,-8.80e+00,
401,-6.00e-01,-7.20e+00,
402,-6.00e-01,-8.80e+00,
403,-6.80e-01,-8.00e+00,
404,-6.80e-01,-8.80e+00,
405,-6.00e-01,-8.00e+00,
406,-6.40e-01,-8.80e+00,
407,-5.60e-01,-8.00e+00,
408,-6.40e-01,-8.80e+00,
409,-5.60e-01,-7.20e+00,
410,-6.40e-01,-8.00e+00,
411,-5.60e-01,-7.20e+00,
412,-6.00e-01,-8.00e+00,
413,-5.20e-01,-6.40e+00,
414,-6.00e-01,-8.00e+00,
415,-5.20e-01,-7.20e+00,
416,-6.00e-01,-8.00e+00,
417,-4.80e-01,-7.20e+00,
418,-5.60e-01,-8.00e+00,
419,-4.80e-01,-6.40e+00,
420,-5.60e-01,-7.20e+00,
421,-4.40e-01,-5.60e+00,
422,-4.40e-01,-7.20e+00,
423,-5.20e-01,-5.60e+00,
424,-4.80e-01,-7.20e+00,
425,-4.00e-01,-5.60e+00,
426,-4.80e-01,-6.40e+00,
427,-3.60e-01,-4.80e+00,
428,-4.40e-01,-6.40e+00,
429,-3.60e-01,-4.80e+00,
430,-4.40e-01,-6.40e+00,
431,-3.20e-01,-4.80e+00,
432,-4.00e-01,-5.60e+00,
433,-2.80e-01,-4.00e+00,
434,-3.60e-01,-4.00e+00,
435,-2.80e-01,-5.60e+00,
436,-3.60e-01,-5.60e+00,
437,-2.40e-01,-4.00e+00,
438,-3.20e-01,-4.80e+00,
439,-2.00e-01,-3.20e+00,
440,-2.00e-01,-4.80e+00,
441,-2.80e-01,-3.20e+00,
442,-2.40e-01,-4.80e+00,
443,-1.60e-01,-2.40e+00,
444,-2.40e-01,-4.00e+00,
445,-1.20e-01,-2.40e+00,
446,-2.00e-01,-4.00e+00,
447,-8.00e-02,-2.40e+00,
448,-1.60e-01,-3.20e+00,
449,-4.00e-02,-1.60e+00,
450,-4.00e-02,-3.20e+00,
451,-1.20e-01,-2.40e+00,
452,-1.20e-01,-3.20e+00,
453,0.00e+00,-8.00e-01,
454,-8.00e-02,-2.40e+00,
455,4.00e-02,-8.00e-01,
456,-4.00e-02,-2.40e+00,
457,8.00e-02,-8.00e-01,
458,0.00e+00,-1.60e+00,
459,1.20e-01,0.00e+00,
460,1.20e-01,-1.60e+00,
461,4.00e-02,0.00e+00,
462,8.00e-02,-1.60e+00,
463,1.60e-01,8.00e-01,
464,1.20e-01,8.00e-01,
465,2.00e-01,-8.00e-01,
466,1.20e-01,8.00e-01,
467,2.40e-01,-8.00e-01,
468,1.60e-01,0.00e+00,
469,2.80e-01,1.60e+00,
470,2.80e-01,0.00e+00,
471,2.00e-01,1.60e+00,
472,2.00e-01,0.00e+00,
473,3.20e-01,2.40e+00,
474,2.80e-01,8.00e-01,
475,4.00e-01,2.40e+00,
476,2.80e-01,8.00e-01,
477,4.00e-01,2.40e+00,
478,3.60e-01,8.00e-01,
479,4.40e-01,3.20e+00,
480,3.60e-01,1.60e+00,
481,4.80e-01,3.20e+00,
482,4.00e-01,1.60e+00,
483,4.80e-01,3.20e+00,
484,4.00e-01,3.20e+00,
485,5.20e-01,1.60e+00,
486,4.40e-01,2.40e+00,
487,5.20e-01,4.00e+00,
488,4.80e-01,2.40e+00,
489,5.60e-01,4.00e+00,
490,4.80e-01,2.40e+00,
491,6.00e-01,4.00e+00,
492,5.20e-01,3.20e+00,
493,6.00e-01,4.80e+00,
494,5.20e-01,3.20e+00,
495,6.40e-01,4.80e+00,
496,6.40e-01,4.80e+00,
497,5.60e-01,3.20e+00,
498,5.60e-01,3.20e+00,
499,6.40e-01,4.80e+00,
500,5.60e-01,3.20e+00,
501,6.80e-01,4.80e+00,
502,6.80e-01,4.80e+00,
503,6.00e-01,4.00e+00,
504,6.80e-01,4.00e+00,
505,6.00e-01,4.80e+00,
506,6.80e-01,4.00e+00,
507,6.00e-01,5.60e+00,
508,6.00e-01,4.00e+00,
509,6.80e-01,5.60e+00,
510,6.00e-01,5.60e+00,
511,7.20e-01,4.00e+00,
512,6.40e-01,5.60e+00,
513,7.20e-01,4.00e+00,
514,7.20e-01,4.00e+00,
515,6.80e-01,5.60e+00,
516,7.20e-01,4.00e+00,
517,6.40e-01,5.60e+00,
518,7.20e-01,4.00e+00,
519,6.40e-01,5.60e+00,
520,6.40e-01,5.60e+00,
521,7.20e-01,4.00e+00,
522,6.40e-01,4.00e+00,
523,7.60e-01,5.60e+00,
524,6.40e-01,4.00e+00,
525,7.60e-01,5.60e+00,
526,6.80e-01,4.80e+00,
527,7.60e-01,5.60e+00,
528,7.60e-01,5.60e+00,
529,6.80e-01,4.80e+00,
530,6.80e-01,5.60e+00,
531,7.60e-01,4.80e+00,
532,7.60e-01,5.60e+00,
533,6.80e-01,4.80e+00,
534,7.60e-01,5.60e+00,
535,6.40e-01,4.00e+00,
536,6.40e-01,5.60e+00,
537,7.60e-01,4.00e+00,
538,7.60e-01,4.00e+00,
539,6.40e-01,5.60e+00,
540,6.40e-01,4.00e+00,
541,7.20e-01,5.60e+00,
542,7.20e-01,4.00e+00,
543,6.40e-01,5.60e+00,
544,6.80e-01,4.00e+00,
545,7.20e-01,5.60e+00,
546,7.20e-01,5.60e+00,
547,6.00e-01,4.00e+00,
548,7.20e-01,4.00e+00,
549,6.00e-01,5.60e+00,
550,6.00e-01,5.60e+00,
551,6.80e-01,4.00e+00,
552,6.80e-01,4.80e+00,
553,6.00e-01,4.00e+00,
554,6.40e-01,4.80e+00,
555,6.80e-01,3.20e+00,
556,6.80e-01,4.80e+00,
557,5.60e-01,3.20e+00,
558,5.60e-01,4.80e+00,
559,6.40e-01,3.20e+00,
560,6.40e-01,4.80e+00,
561,5.20e-01,3.20e+00,
562,5.20e-01,4.80e+00,
563,6.00e-01,3.20e+00,
564,6.00e-01,4.00e+00,
565,4.80e-01,2.40e+00,
566,4.80e-01,4.00e+00,
567,5.60e-01,2.40e+00,
568,5.60e-01,2.40e+00,
569,4.40e-01,4.00e+00,
570,4.40e-01,3.20e+00,
571,5.20e-01,1.60e+00,
572,4.80e-01,3.20e+00,
573,4.00e-01,1.60e+00,
574,4.80e-01,1.60e+00,
575,3.60e-01,3.20e+00,
576,3.60e-01,1.60e+00,
577,4.40e-01,3.20e+00,
578,4.00e-01,8.00e-01,
579,3.20e-01,2.40e+00,
580,4.00e-01,8.00e-01,
581,2.40e-01,2.40e+00,
582,2.40e-01,1.60e+00,
583,3.20e-01,0.00e+00,
584,3.20e-01,1.60e+00,
585,2.00e-01,0.00e+00,
586,2.80e-01,0.00e+00,
587,1.60e-01,1.60e+00,
588,2.40e-01,8.00e-01,
589,1.60e-01,-8.00e-01,
590,2.00e-01,8.00e-01,
591,1.20e-01,-8.00e-01,
592,2.00e-01,8.00e-01,
593,8.00e-02,-8.00e-01,
594,1.60e-01,0.00e+00,
595,4.00e-02,-1.60e+00,
596,1.20e-01,0.00e+00,
597,0.00e+00,-1.60e+00,
598,0.00e+00,0.00e+00,
599,8.00e-02,-2.40e+00,
600,4.00e-02,-2.40e+00,
601,-4.00e-02,-8.00e-01,
602,4.00e-02,-2.40e+00,
603,-8.00e-02,-8.00e-01,
604,0.00e+00,-1.60e+00,
605,-1.20e-01,-3.20e+00,
606,-1.20e-01,-3.20e+00,
607,-4.00e-02,-1.60e+00,
608,-8.00e-02,-3.20e+00,
609,-1.60e-01,-1.60e+00,
610,-8.00e-02,-2.40e+00,
611,-2.00e-01,-4.00e+00,
612,-1.20e-01,-4.00e+00,
613,-2.40e-01,-2.40e+00,
614,-2.40e-01,-3.20e+00,
615,-1.60e-01,-4.80e+00,
616,-2.00e-01,-4.80e+00,
617,-2.80e-01,-3.20e+00,
618,-2.00e-01,-4.80e+00,
619,-3.20e-01,-3.20e+00,
620,-3.20e-01,-4.00e+00,
621,-2.40e-01,-5.60e+00,
622,-2.40e-01,-5.60e+00,
623,-3.60e-01,-4.00e+00,
624,-2.80e-01,-5.60e+00,
625,-4.00e-01,-4.00e+00,
626,-4.00e-01,-5.60e+00,
627,-3.20e-01,-4.00e+00,
628,-3.20e-01,-6.40e+00,
629,-4.40e-01,-4.80e+00,
630,-4.40e-01,-6.40e+00,
631,-3.60e-01,-4.80e+00,
632,-4.00e-01,-6.40e+00,
633,-4.80e-01,-4.80e+00,
634,-4.80e-01,-5.60e+00,
635,-4.00e-01,-7.20e+00,
636,-4.40e-01,-7.20e+00,
637,-5.20e-01,-5.60e+00,
638,-4.40e-01,-7.20e+00,
639,-5.20e-01,-5.60e+00,
640,-4.80e-01,-7.20e+00,
641,-5.60e-01,-5.60e+00,
642,-5.60e-01,-6.40e+00,
643,-4.80e-01,-8.00e+00,
644,-4.80e-01,-6.40e+00,
645,-6.00e-01,-8.00e+00,
646,-6.00e-01,-8.00e+00,
647,-5.20e-01,-7.20e+00,
648,-6.00e-01,-8.00e+00,
649,-5.20e-01,-6.40e+00,
650,-5.60e-01,-8.00e+00,
651,-6.40e-01,-6.40e+00,
652,-5.60e-01,-7.20e+00,
653,-6.40e-01,-8.80e+00,
654,-5.60e-01,-7.20e+00,
655,-6.40e-01,-8.80e+00,
656,-6.40e-01,-8.80e+00,
657,-5.60e-01,-7.20e+00,
658,-6.40e-01,-8.80e+00,
659,-6.00e-01,-7.20e+00,
660,-6.00e-01,-8.80e+00,
661,-6.80e-01,-7.20e+00,
662,-6.00e-01,-8.80e+00,
663,-6.80e-01,-7.20e+00,
664,-6.00e-01,-8.80e+00,
665,-6.80e-01,-7.20e+00,
666,-6.80e-01,-8.80e+00,
667,-6.00e-01,-7.20e+00,
668,-6.80e-01,-8.80e+00,
669,-5.60e-01,-7.20e+00,
670,-5.60e-01,-8.80e+00,
671,-6.40e-01,-7.20e+00,
672,-5.60e-01,-8.80e+00,
673,-6.40e-01,-7.20e+00,
674,-6.00e-01,-8.00e+00,
675,-5.20e-01,-6.40e+00,
676,-6.00e-01,-8.00e+00,
677,-5.20e-01,-6.40e+00,
678,-6.00e-01,-8.00e+00,
679,-5.20e-01,-6.40e+00,
680,-5.60e-01,-8.00e+00,
681,-4.80e-01,-6.40e+00,
682,-5.60e-01,-7.20e+00,
683,-4.40e-01,-5.60e+00,
684,-5.20e-01,-7.20e+00,
685,-4.40e-01,-5.60e+00,
686,-5.20e-01,-7.20e+00,
687,-4.00e-01,-5.60e+00,
688,-4.00e-01,-6.40e+00,
689,-4.80e-01,-4.80e+00,
690,-4.40e-01,-4.80e+00,
691,-3.60e-01,-6.40e+00,
692,-4.40e-01,-6.40e+00,
693,-3.20e-01,-4.80e+00,
694,-3.20e-01,-5.60e+00,
695,-4.00e-01,-4.80e+00,
696,-3.60e-01,-5.60e+00,
697,-2.80e-01,-4.00e+00,
698,-3.60e-01,-5.60e+00,
699,-2.40e-01,-4.00e+00,
700,-2.40e-01,-4.80e+00,
701,-3.20e-01,-3.20e+00,
702,-3.20e-01,-3.20e+00,
703,-2.00e-01,-4.80e+00,
704,-2.80e-01,-4.80e+00,
705,-1.60e-01,-3.20e+00,
706,-2.40e-01,-4.00e+00,
707,-1.20e-01,-2.40e+00,
708,-1.20e-01,-4.00e+00,
709,-2.00e-01,-2.40e+00,
710,-1.60e-01,-4.00e+00,
711,-8.00e-02,-1.60e+00,
712,-1.20e-01,-3.20e+00,
713,-4.00e-02,-1.60e+00,
714,-1.20e-01,-3.20e+00,
715,0.00e+00,-1.60e+00,
716,-8.00e-02,-2.40e+00,
717,4.00e-02,-8.00e-01,
718,4.00e-02,-2.40e+00,
719,-4.00e-02,-8.00e-01,
720,0.00e+00,-2.40e+00,
721,8.00e-02,0.00e+00,
722,0.00e+00,-1.60e+00,
723,1.20e-01,0.00e+00,
724,4.00e-02,-1.60e+00,
725,1.60e-01,0.00e+00,
726,8.00e-02,-8.00e-01,
727,2.00e-01,8.00e-01,
728,1.20e-01,-8.00e-01,
729,2.40e-01,8.00e-01,
730,2.40e-01,0.00e+00,
731,1.60e-01,1.60e+00,
732,1.60e-01,1.60e+00,
733,2.80e-01,0.00e+00,
734,2.00e-01,0.00e+00,
735,3.20e-01,1.60e+00,
736,2.80e-01,8.00e-01,
737,3.60e-01,2.40e+00,
738,4.00e-01,2.40e+00,
739,2.80e-01,8.00e-01,
740,3.20e-01,8.00e-01,
741,4.40e-01,2.40e+00,
742,3.60e-01,1.60e+00,
743,4.80e-01,3.20e+00,
744,4.00e-01,3.20e+00,
745,4.80e-01,1.60e+00,
746,4.00e-01,1.60e+00,
747,5.20e-01,3.20e+00,
748,5.20e-01,2.40e+00,
749,4.40e-01,4.00e+00,
750,4.40e-01,2.40e+00,
751,5.60e-01,4.00e+00,
752,4.80e-01,2.40e+00,
753,6.00e-01,4.00e+00,
754,4.80e-01,3.20e+00,
755,6.00e-01,4.00e+00,
756,6.00e-01,3.20e+00,
757,5.20e-01,4.80e+00,
758,6.40e-01,4.80e+00,
759,5.20e-01,3.20e+00,
760,5.60e-01,3.20e+00,
761,6.40e-01,4.80e+00,
762,5.60e-01,3.20e+00,
763,6.80e-01,4.80e+00,
764,6.00e-01,4.00e+00,
765,6.80e-01,4.80e+00,
766,6.00e-01,4.00e+00,
767,6.80e-01,4.80e+00,
768,6.00e-01,4.00e+00,
769,6.80e-01,5.60e+00,
770,6.00e-01,4.00e+00,
771,6.80e-01,5.60e+00,
772,6.00e-01,4.00e+00,
773,7.20e-01,5.60e+00,
774,6.00e-01,5.60e+00,
775,7.20e-01,4.00e+00,
776,6.40e-01,4.00e+00,
777,7.20e-01,5.60e+00,
778,6.40e-01,5.60e+00,
779,7.20e-01,4.00e+00,
780,6.40e-01,4.00e+00,
781,7.20e-01,5.60e+00,
782,7.20e-01,4.00e+00,
783,6.40e-01,5.60e+00,
784,6.40e-01,4.00e+00,
785,7.60e-01,5.60e+00,
786,6.40e-01,5.60e+00,
787,7.60e-01,4.00e+00,
788,7.60e-01,4.80e+00,
789,6.80e-01,5.60e+00,
790,7.60e-01,5.60e+00,
791,6.80e-01,4.80e+00,
792,7.60e-01,4.80e+00,
793,6.80e-01,5.60e+00,
794,7.60e-01,5.60e+00,
795,7.20e-01,4.80e+00,
796,7.60e-01,5.60e+00,
797,6.80e-01,4.80e+00,
798,7.60e-01,5.60e+00,
799,6.40e-01,4.00e+00,
800,6.40e-01,5.60e+00,
801,7.20e-01,4.00e+00,
802,7.20e-01,4.00e+00,
803,6.40e-01,5.60e+00,
804,6.40e-01,4.80e+00,
805,7.20e-01,4.00e+00,
806,7.20e-01,4.00e+00,
807,6.40e-01,5.60e+00,
808,7.20e-01,4.00e+00,
809,6.40e-01,5.60e+00,
810,7.20e-01,4.00e+00,
811,6.00e-01,5.60e+00,
812,6.00e-01,4.00e+00,
813,7.20e-01,5.60e+00,
814,6.80e-01,4.80e+00,
815,6.00e-01,4.00e+00,
816,6.80e-01,4.80e+00,
817,6.00e-01,4.00e+00,
818,6.00e-01,4.80e+00,
819,6.80e-01,4.00e+00,
820,6.80e-01,4.80e+00,
821,5.60e-01,3.20e+00,
822,6.40e-01,4.80e+00,
823,5.60e-01,3.20e+00,
824,6.40e-01,3.20e+00,
825,5.20e-01,4.80e+00,
826,5.20e-01,4.00e+00,
827,6.00e-01,2.40e+00,
828,6.00e-01,4.00e+00,
829,4.80e-01,2.40e+00,
830,5.60e-01,2.40e+00,
831,4.40e-01,4.00e+00,
832,4.40e-01,4.00e+00,
833,5.20e-01,2.40e+00,
834,5.20e-01,3.20e+00,
835,4.00e-01,1.60e+00,
836,4.00e-01,1.60e+00,
837,4.80e-01,3.20e+00,
838,4.40e-01,3.20e+00,
