2026-Spring/Intro-to-Sensor/Homework3/sensor_Lab/5.csv

X,CH1,CH2,Start,Increment,
Sequence,Volt,Volt,-3.000000e-01,5.000000e-04
0,5.49e-01,1.96e+00,
1,6.10e-01,1.92e+00,
2,5.49e-01,1.92e+00,
3,6.10e-01,1.96e+00,
4,5.49e-01,1.96e+00,
5,6.10e-01,1.92e+00,
6,6.10e-01,1.96e+00,
7,5.49e-01,1.92e+00,
8,5.49e-01,1.96e+00,
9,7.08e-01,-4.00e-02,
10,6.59e-01,-4.00e-02,
11,7.81e-01,4.00e-02,
12,7.44e-01,-4.00e-02,
13,8.54e-01,4.00e-02,
14,8.17e-01,4.00e-02,
15,9.15e-01,-4.00e-02,
16,8.66e-01,4.00e-02,
17,9.64e-01,-4.00e-02,
18,9.27e-01,4.00e-02,
19,1.01e+00,-4.00e-02,
20,9.76e-01,4.00e-02,
21,1.06e+00,-4.00e-02,
22,1.01e+00,4.00e-02,
23,1.11e+00,-4.00e-02,
24,1.07e+00,-4.00e-02,
25,1.15e+00,4.00e-02,
26,1.10e+00,-4.00e-02,
27,1.20e+00,4.00e-02,
28,1.15e+00,-4.00e-02,
29,1.22e+00,8.00e-02,
30,1.18e+00,4.00e-02,
31,1.26e+00,-4.00e-02,
32,1.21e+00,-4.00e-02,
33,1.28e+00,4.00e-02,
34,1.24e+00,-4.00e-02,
35,1.32e+00,4.00e-02,
36,1.27e+00,4.00e-02,
37,1.34e+00,-4.00e-02,
38,1.31e+00,-4.00e-02,
39,1.37e+00,4.00e-02,
40,1.33e+00,4.00e-02,
41,1.38e+00,-4.00e-02,
42,1.34e+00,4.00e-02,
43,1.42e+00,-4.00e-02,
44,1.37e+00,-4.00e-02,
45,1.44e+00,8.00e-02,
46,1.38e+00,-4.00e-02,
47,1.45e+00,4.00e-02,
48,1.40e+00,-4.00e-02,
49,1.46e+00,4.00e-02,
50,1.43e+00,4.00e-02,
51,1.48e+00,-4.00e-02,
52,1.44e+00,4.00e-02,
53,1.50e+00,-4.00e-02,
54,1.45e+00,4.00e-02,
55,1.51e+00,-4.00e-02,
56,1.46e+00,4.00e-02,
57,1.52e+00,-4.00e-02,
58,1.48e+00,4.00e-02,
59,1.52e+00,-4.00e-02,
60,1.54e+00,-4.00e-02,
61,1.48e+00,4.00e-02,
62,1.49e+00,4.00e-02,
63,1.56e+00,-4.00e-02,
64,1.50e+00,4.00e-02,
65,1.57e+00,-4.00e-02,
66,1.51e+00,4.00e-02,
67,1.59e+00,-4.00e-02,
68,1.52e+00,4.00e-02,
69,1.60e+00,-4.00e-02,
70,1.55e+00,4.00e-02,
71,1.60e+00,-4.00e-02,
72,1.55e+00,-4.00e-02,
73,1.61e+00,4.00e-02,
74,1.61e+00,-4.00e-02,
75,1.56e+00,4.00e-02,
76,1.62e+00,4.00e-02,
77,1.56e+00,-4.00e-02,
78,1.57e+00,4.00e-02,
79,1.63e+00,-4.00e-02,
80,1.59e+00,4.00e-02,
81,1.63e+00,-4.00e-02,
82,1.59e+00,4.00e-02,
83,1.65e+00,-4.00e-02,
84,1.59e+00,-4.00e-02,
85,1.66e+00,4.00e-02,
86,1.60e+00,-4.00e-02,
87,1.66e+00,4.00e-02,
88,1.66e+00,-4.00e-02,
89,1.60e+00,4.00e-02,
90,1.66e+00,-4.00e-02,
91,1.60e+00,4.00e-02,
92,1.61e+00,4.00e-02,
93,1.67e+00,-4.00e-02,
94,1.67e+00,4.00e-02,
95,1.61e+00,-4.00e-02,
96,1.62e+00,4.00e-02,
97,1.67e+00,-4.00e-02,
98,1.62e+00,4.00e-02,
99,1.70e+00,-4.00e-02,
100,1.62e+00,-4.00e-02,
101,1.70e+00,4.00e-02,
102,1.62e+00,4.00e-02,
103,1.70e+00,-4.00e-02,
104,1.62e+00,4.00e-02,
105,1.70e+00,-4.00e-02,
106,1.70e+00,4.00e-02,
107,1.63e+00,-4.00e-02,
108,1.65e+00,4.00e-02,
109,1.71e+00,-4.00e-02,
110,1.65e+00,4.00e-02,
111,1.71e+00,-4.00e-02,
112,1.65e+00,-4.00e-02,
113,1.71e+00,4.00e-02,
114,1.72e+00,4.00e-02,
115,1.65e+00,-4.00e-02,
116,1.65e+00,4.00e-02,
117,1.72e+00,-4.00e-02,
118,1.66e+00,-4.00e-02,
119,1.72e+00,4.00e-02,
120,1.65e+00,4.00e-02,
121,1.73e+00,-4.00e-02,
122,1.66e+00,-4.00e-02,
123,1.73e+00,4.00e-02,
124,1.68e+00,-4.00e-02,
125,1.73e+00,4.00e-02,
126,1.68e+00,-4.00e-02,
127,1.73e+00,4.00e-02,
128,1.68e+00,4.00e-02,
129,1.73e+00,-4.00e-02,
130,1.73e+00,4.00e-02,
131,1.68e+00,-4.00e-02,
132,1.73e+00,-4.00e-02,
133,1.68e+00,4.00e-02,
134,1.68e+00,4.00e-02,
135,1.73e+00,-4.00e-02,
136,1.73e+00,-4.00e-02,
137,1.68e+00,4.00e-02,
138,1.68e+00,4.00e-02,
139,1.74e+00,-4.00e-02,
140,1.74e+00,-4.00e-02,
141,1.68e+00,4.00e-02,
142,1.68e+00,4.00e-02,
143,1.76e+00,-4.00e-02,
144,1.74e+00,4.00e-02,
145,1.68e+00,-4.00e-02,
146,1.70e+00,4.00e-02,
147,1.76e+00,-4.00e-02,
148,1.70e+00,-4.00e-02,
149,1.76e+00,4.00e-02,
150,1.70e+00,-4.00e-02,
151,1.76e+00,4.00e-02,
152,1.76e+00,-4.00e-02,
153,1.70e+00,4.00e-02,
154,1.70e+00,-4.00e-02,
155,1.76e+00,4.00e-02,
156,1.71e+00,4.00e-02,
157,1.76e+00,-4.00e-02,
158,1.76e+00,4.00e-02,
159,1.70e+00,-4.00e-02,
160,1.77e+00,-4.00e-02,
161,1.70e+00,4.00e-02,
162,1.71e+00,4.00e-02,
163,1.77e+00,-4.00e-02,
164,1.71e+00,-4.00e-02,
165,1.77e+00,4.00e-02,
166,1.71e+00,-4.00e-02,
167,1.77e+00,4.00e-02,
168,1.77e+00,-4.00e-02,
169,1.71e+00,4.00e-02,
170,1.77e+00,4.00e-02,
171,1.71e+00,-4.00e-02,
172,1.71e+00,-4.00e-02,
173,1.77e+00,4.00e-02,
174,1.77e+00,4.00e-02,
175,1.71e+00,-4.00e-02,
176,1.77e+00,-4.00e-02,
177,1.71e+00,4.00e-02,
178,1.77e+00,4.00e-02,
179,1.71e+00,-4.00e-02,
180,1.72e+00,-4.00e-02,
181,1.77e+00,4.00e-02,
182,1.72e+00,4.00e-02,
183,1.77e+00,-4.00e-02,
184,1.77e+00,4.00e-02,
185,1.71e+00,-4.00e-02,
186,1.77e+00,4.00e-02,
187,1.71e+00,-4.00e-02,
188,1.77e+00,4.00e-02,
189,1.72e+00,-4.00e-02,
190,1.72e+00,-4.00e-02,
191,1.78e+00,4.00e-02,
192,1.72e+00,-4.00e-02,
193,1.78e+00,4.00e-02,
194,1.72e+00,-4.00e-02,
195,1.78e+00,4.00e-02,
196,1.78e+00,4.00e-02,
197,1.72e+00,-4.00e-02,
198,1.78e+00,4.00e-02,
199,1.73e+00,-4.00e-02,
200,1.73e+00,4.00e-02,
201,1.78e+00,-4.00e-02,
202,1.78e+00,4.00e-02,
203,1.72e+00,-4.00e-02,
204,1.78e+00,4.00e-02,
205,1.73e+00,-4.00e-02,
206,1.73e+00,4.00e-02,
207,1.78e+00,-4.00e-02,
208,1.79e+00,-4.00e-02,
209,1.26e+00,2.12e+00,
210,1.28e+00,2.04e+00,
211,9.76e-01,1.96e+00,
212,1.01e+00,2.04e+00,
213,8.54e-01,1.92e+00,
214,8.91e-01,2.04e+00,
215,7.81e-01,1.92e+00,
216,8.17e-01,2.04e+00,
217,7.20e-01,1.96e+00,
218,7.69e-01,2.04e+00,
219,6.95e-01,1.92e+00,
220,7.32e-01,2.04e+00,
221,6.71e-01,1.92e+00,
222,7.20e-01,1.92e+00,
223,6.47e-01,2.04e+00,
224,6.95e-01,1.92e+00,
225,6.34e-01,2.04e+00,
226,6.83e-01,1.92e+00,
227,6.22e-01,2.00e+00,
228,6.83e-01,2.00e+00,
229,6.10e-01,1.92e+00,
230,6.71e-01,2.00e+00,
231,5.98e-01,1.92e+00,
232,5.98e-01,1.92e+00,
233,6.59e-01,2.00e+00,
234,5.98e-01,2.00e+00,
235,6.47e-01,1.92e+00,
236,5.86e-01,1.92e+00,
237,6.34e-01,2.04e+00,
238,5.86e-01,1.92e+00,
239,6.47e-01,2.00e+00,
240,6.34e-01,2.00e+00,
241,5.86e-01,1.92e+00,
242,6.34e-01,1.96e+00,
243,5.73e-01,1.92e+00,
244,6.34e-01,1.92e+00,
245,5.73e-01,2.04e+00,
246,6.22e-01,1.96e+00,
247,5.73e-01,1.92e+00,
248,6.22e-01,1.92e+00,
249,5.61e-01,2.04e+00,
250,5.73e-01,1.92e+00,
251,6.34e-01,1.96e+00,
252,6.22e-01,1.92e+00,
253,5.61e-01,1.96e+00,
254,6.22e-01,1.96e+00,
255,5.61e-01,1.92e+00,
256,6.10e-01,1.92e+00,
257,5.61e-01,2.00e+00,
258,5.61e-01,1.92e+00,
259,6.22e-01,2.00e+00,
260,5.61e-01,1.92e+00,
261,6.22e-01,2.00e+00,
262,5.61e-01,1.92e+00,
263,6.10e-01,2.00e+00,
264,5.61e-01,2.00e+00,
265,6.22e-01,1.92e+00,
266,5.61e-01,2.00e+00,
267,6.22e-01,1.92e+00,
268,5.61e-01,2.00e+00,
269,6.10e-01,1.92e+00,
270,5.61e-01,1.92e+00,
271,6.10e-01,2.00e+00,
272,5.61e-01,1.92e+00,
273,6.10e-01,2.04e+00,
274,5.61e-01,1.92e+00,
275,6.10e-01,2.04e+00,
276,5.61e-01,2.00e+00,
277,6.10e-01,1.92e+00,
278,6.10e-01,1.92e+00,
279,5.61e-01,2.00e+00,
280,5.61e-01,1.92e+00,
281,6.10e-01,2.00e+00,
282,6.10e-01,1.96e+00,
283,5.49e-01,1.92e+00,
284,6.10e-01,1.92e+00,
285,5.49e-01,1.96e+00,
286,5.61e-01,1.92e+00,
287,6.10e-01,2.00e+00,
288,6.10e-01,1.92e+00,
289,5.49e-01,2.00e+00,
290,6.10e-01,1.92e+00,
291,5.49e-01,2.04e+00,
292,6.10e-01,1.92e+00,
293,5.49e-01,2.00e+00,
294,5.61e-01,1.96e+00,
295,6.10e-01,1.92e+00,
296,5.49e-01,1.92e+00,
297,6.10e-01,2.00e+00,
298,5.61e-01,1.92e+00,
299,6.10e-01,2.00e+00,
300,6.10e-01,2.00e+00,
301,5.49e-01,1.92e+00,
302,6.10e-01,2.00e+00,
303,5.49e-01,1.92e+00,
304,6.10e-01,2.00e+00,
305,5.49e-01,1.92e+00,
306,5.49e-01,2.00e+00,
307,6.10e-01,1.92e+00,
308,5.49e-01,2.00e+00,
309,6.10e-01,1.92e+00,
310,5.61e-01,1.92e+00,
311,6.10e-01,2.00e+00,
312,5.61e-01,2.00e+00,
313,6.10e-01,1.92e+00,
314,6.10e-01,1.92e+00,
315,5.49e-01,2.00e+00,
316,5.49e-01,1.92e+00,
317,6.10e-01,2.00e+00,
318,5.49e-01,2.00e+00,
319,6.10e-01,1.92e+00,
320,5.49e-01,1.92e+00,
321,6.10e-01,2.00e+00,
322,5.49e-01,1.92e+00,
323,6.10e-01,2.00e+00,
324,6.10e-01,1.92e+00,
325,5.49e-01,1.96e+00,
326,6.10e-01,1.92e+00,
327,5.49e-01,2.00e+00,
328,5.49e-01,2.00e+00,
329,6.10e-01,1.92e+00,
330,6.10e-01,1.96e+00,
331,5.49e-01,1.92e+00,
332,5.49e-01,1.96e+00,
333,6.10e-01,1.92e+00,
334,6.10e-01,1.92e+00,
335,5.49e-01,2.00e+00,
336,5.49e-01,1.92e+00,
337,6.10e-01,2.00e+00,
338,5.49e-01,1.92e+00,
339,6.10e-01,2.00e+00,
340,5.49e-01,2.00e+00,
341,6.10e-01,1.92e+00,
342,5.49e-01,2.00e+00,
343,6.10e-01,1.92e+00,
344,6.10e-01,1.92e+00,
345,5.49e-01,2.00e+00,
346,6.10e-01,2.00e+00,
347,5.49e-01,1.92e+00,
348,5.49e-01,2.00e+00,
349,6.10e-01,1.92e+00,
350,5.49e-01,2.00e+00,
351,6.10e-01,1.92e+00,
352,5.49e-01,2.00e+00,
353,6.10e-01,1.92e+00,
354,6.10e-01,1.92e+00,
355,5.49e-01,2.00e+00,
356,5.49e-01,2.00e+00,
357,6.10e-01,1.92e+00,
358,6.10e-01,1.92e+00,
359,5.49e-01,2.00e+00,
360,5.49e-01,2.00e+00,
361,6.10e-01,1.92e+00,
362,5.98e-01,1.92e+00,
363,5.49e-01,2.00e+00,
364,6.10e-01,1.92e+00,
365,5.49e-01,2.00e+00,
366,5.49e-01,1.92e+00,
367,6.10e-01,2.00e+00,
368,5.49e-01,1.92e+00,
369,5.98e-01,2.00e+00,
370,5.98e-01,1.92e+00,
371,5.49e-01,2.00e+00,
372,5.98e-01,1.92e+00,
373,5.49e-01,2.00e+00,
374,5.98e-01,1.92e+00,
375,5.49e-01,2.00e+00,
376,5.98e-01,1.92e+00,
377,5.49e-01,2.00e+00,
378,5.49e-01,1.92e+00,
379,5.98e-01,2.00e+00,
380,5.49e-01,2.00e+00,
381,6.10e-01,1.92e+00,
382,5.49e-01,1.92e+00,
383,6.10e-01,2.00e+00,
384,5.98e-01,1.92e+00,
385,5.49e-01,2.00e+00,
386,6.10e-01,1.92e+00,
387,5.49e-01,2.00e+00,
388,5.49e-01,2.00e+00,
389,5.98e-01,1.92e+00,
390,5.98e-01,1.92e+00,
391,5.49e-01,2.00e+00,
392,5.49e-01,1.92e+00,
393,6.10e-01,2.00e+00,
394,5.49e-01,2.00e+00,
395,6.10e-01,1.92e+00,
396,5.98e-01,2.00e+00,
397,5.49e-01,1.92e+00,
398,5.49e-01,2.00e+00,
399,5.98e-01,1.92e+00,
400,5.98e-01,2.00e+00,
401,5.49e-01,1.92e+00,
402,5.98e-01,1.92e+00,
403,5.49e-01,2.00e+00,
404,5.98e-01,1.92e+00,
405,5.49e-01,2.00e+00,
406,5.49e-01,1.92e+00,
407,6.10e-01,2.00e+00,
408,5.49e-01,2.00e+00,
409,6.34e-01,-4.00e-02,
410,5.98e-01,4.00e-02,
411,7.44e-01,-4.00e-02,
412,6.95e-01,-4.00e-02,
413,8.17e-01,4.00e-02,
414,7.69e-01,4.00e-02,
415,8.78e-01,-4.00e-02,
416,8.30e-01,4.00e-02,
417,9.39e-01,-4.00e-02,
418,9.03e-01,4.00e-02,
419,9.88e-01,-4.00e-02,
420,9.52e-01,4.00e-02,
421,1.04e+00,-4.00e-02,
422,1.00e+00,4.00e-02,
423,1.09e+00,-4.00e-02,
424,1.05e+00,4.00e-02,
425,1.12e+00,-4.00e-02,
426,1.09e+00,4.00e-02,
427,1.16e+00,-4.00e-02,
428,1.12e+00,4.00e-02,
429,1.21e+00,-4.00e-02,
430,1.17e+00,4.00e-02,
431,1.24e+00,-4.00e-02,
432,1.20e+00,4.00e-02,
433,1.27e+00,-4.00e-02,
434,1.23e+00,4.00e-02,
435,1.29e+00,-4.00e-02,
436,1.26e+00,4.00e-02,
437,1.33e+00,-4.00e-02,
438,1.29e+00,4.00e-02,
439,1.35e+00,-4.00e-02,
440,1.32e+00,4.00e-02,
441,1.38e+00,-4.00e-02,
442,1.33e+00,-4.00e-02,
443,1.40e+00,4.00e-02,
444,1.35e+00,-4.00e-02,
445,1.42e+00,4.00e-02,
446,1.37e+00,4.00e-02,
447,1.44e+00,-4.00e-02,
448,1.39e+00,4.00e-02,
449,1.46e+00,-4.00e-02,
450,1.42e+00,-4.00e-02,
451,1.49e+00,4.00e-02,
452,1.43e+00,-4.00e-02,
453,1.49e+00,4.00e-02,
454,1.44e+00,-4.00e-02,
455,1.50e+00,4.00e-02,
456,1.45e+00,4.00e-02,
457,1.51e+00,-4.00e-02,
458,1.46e+00,-4.00e-02,
459,1.52e+00,4.00e-02,
460,1.48e+00,4.00e-02,
461,1.54e+00,-4.00e-02,
462,1.49e+00,-4.00e-02,
463,1.55e+00,4.00e-02,
464,1.50e+00,-4.00e-02,
465,1.57e+00,4.00e-02,
466,1.51e+00,4.00e-02,
467,1.57e+00,-4.00e-02,
468,1.59e+00,4.00e-02,
469,1.51e+00,-4.00e-02,
470,1.54e+00,4.00e-02,
471,1.60e+00,-4.00e-02,
472,1.54e+00,4.00e-02,
473,1.61e+00,-4.00e-02,
474,1.56e+00,4.00e-02,
475,1.61e+00,-4.00e-02,
476,1.56e+00,-4.00e-02,
477,1.62e+00,4.00e-02,
478,1.57e+00,4.00e-02,
479,1.63e+00,-4.00e-02,
480,1.59e+00,4.00e-02,
481,1.63e+00,-4.00e-02,
482,1.59e+00,-4.00e-02,
483,1.65e+00,4.00e-02,
484,1.59e+00,4.00e-02,
485,1.65e+00,-4.00e-02,
486,1.59e+00,4.00e-02,
487,1.66e+00,-4.00e-02,
488,1.60e+00,4.00e-02,
489,1.66e+00,-4.00e-02,
490,1.66e+00,-4.00e-02,
491,1.60e+00,4.00e-02,
492,1.66e+00,4.00e-02,
493,1.61e+00,-4.00e-02,
494,1.61e+00,4.00e-02,
495,1.67e+00,-4.00e-02,
496,1.61e+00,4.00e-02,
497,1.68e+00,-4.00e-02,
498,1.62e+00,-4.00e-02,
499,1.70e+00,4.00e-02,
500,1.62e+00,4.00e-02,
501,1.70e+00,-4.00e-02,
502,1.62e+00,-4.00e-02,
503,1.70e+00,4.00e-02,
504,1.63e+00,-4.00e-02,
505,1.70e+00,4.00e-02,
506,1.63e+00,4.00e-02,
507,1.71e+00,-4.00e-02,
508,1.71e+00,4.00e-02,
509,1.63e+00,-4.00e-02,
510,1.65e+00,4.00e-02,
511,1.71e+00,-4.00e-02,
512,1.65e+00,4.00e-02,
513,1.71e+00,-4.00e-02,
514,1.72e+00,4.00e-02,
515,1.65e+00,-4.00e-02,
516,1.72e+00,4.00e-02,
517,1.66e+00,-4.00e-02,
518,1.66e+00,4.00e-02,
519,1.73e+00,-4.00e-02,
520,1.72e+00,-4.00e-02,
521,1.66e+00,4.00e-02,
522,1.66e+00,4.00e-02,
523,1.73e+00,-4.00e-02,
524,1.73e+00,-4.00e-02,
525,1.66e+00,4.00e-02,
526,1.68e+00,-4.00e-02,
527,1.73e+00,4.00e-02,
528,1.73e+00,4.00e-02,
529,1.68e+00,-4.00e-02,
530,1.68e+00,4.00e-02,
531,1.73e+00,-4.00e-02,
532,1.68e+00,-4.00e-02,
533,1.73e+00,4.00e-02,
534,1.68e+00,4.00e-02,
535,1.74e+00,-4.00e-02,
536,1.68e+00,-4.00e-02,
537,1.74e+00,4.00e-02,
538,1.74e+00,-4.00e-02,
539,1.68e+00,4.00e-02,
540,1.68e+00,4.00e-02,
541,1.76e+00,-4.00e-02,
542,1.74e+00,4.00e-02,
543,1.68e+00,-4.00e-02,
544,1.74e+00,4.00e-02,
545,1.70e+00,-4.00e-02,
546,1.70e+00,-4.00e-02,
547,1.74e+00,4.00e-02,
548,1.76e+00,-4.00e-02,
549,1.68e+00,4.00e-02,
550,1.70e+00,4.00e-02,
551,1.76e+00,-4.00e-02,
552,1.70e+00,4.00e-02,
553,1.76e+00,-4.00e-02,
554,1.70e+00,-4.00e-02,
555,1.76e+00,4.00e-02,
556,1.76e+00,-4.00e-02,
557,1.70e+00,4.00e-02,
558,1.76e+00,-4.00e-02,
559,1.70e+00,4.00e-02,
560,1.71e+00,-4.00e-02,
561,1.76e+00,4.00e-02,
562,1.71e+00,-4.00e-02,
563,1.77e+00,4.00e-02,
564,1.71e+00,4.00e-02,
565,1.77e+00,-4.00e-02,
566,1.71e+00,-4.00e-02,
567,1.77e+00,4.00e-02,
568,1.77e+00,4.00e-02,
569,1.71e+00,-4.00e-02,
570,1.77e+00,-4.00e-02,
571,1.72e+00,4.00e-02,
572,1.77e+00,-4.00e-02,
573,1.71e+00,4.00e-02,
574,1.77e+00,-4.00e-02,
575,1.71e+00,4.00e-02,
576,1.77e+00,4.00e-02,
577,1.71e+00,-4.00e-02,
578,1.72e+00,-4.00e-02,
579,1.77e+00,4.00e-02,
580,1.72e+00,4.00e-02,
581,1.77e+00,-4.00e-02,
582,1.77e+00,4.00e-02,
583,1.71e+00,-4.00e-02,
584,1.77e+00,4.00e-02,
585,1.72e+00,-4.00e-02,
586,1.77e+00,4.00e-02,
587,1.71e+00,-4.00e-02,
588,1.72e+00,-4.00e-02,
589,1.77e+00,4.00e-02,
590,1.77e+00,4.00e-02,
591,1.72e+00,-4.00e-02,
592,1.72e+00,-4.00e-02,
593,1.78e+00,4.00e-02,
594,1.72e+00,4.00e-02,
595,1.78e+00,-4.00e-02,
596,1.78e+00,-4.00e-02,
597,1.72e+00,4.00e-02,
598,1.72e+00,4.00e-02,
599,1.78e+00,-4.00e-02,
600,1.73e+00,4.00e-02,
601,1.78e+00,-4.00e-02,
602,1.78e+00,4.00e-02,
603,1.73e+00,-4.00e-02,
604,1.73e+00,4.00e-02,
605,1.79e+00,-4.00e-02,
606,1.73e+00,4.00e-02,
607,1.79e+00,-4.00e-02,
608,1.79e+00,-4.00e-02,
609,1.66e+00,2.16e+00,
610,1.66e+00,2.04e+00,
611,1.09e+00,1.92e+00,
612,1.12e+00,2.04e+00,
613,9.15e-01,1.92e+00,
614,9.52e-01,2.04e+00,
615,8.17e-01,1.92e+00,
616,8.54e-01,2.04e+00,
617,7.44e-01,1.96e+00,
618,7.93e-01,2.04e+00,
619,7.08e-01,1.96e+00,
620,7.56e-01,2.04e+00,
621,6.71e-01,1.92e+00,
622,7.20e-01,1.92e+00,
623,6.59e-01,2.04e+00,
624,7.08e-01,1.92e+00,
625,6.47e-01,2.04e+00,
626,6.83e-01,2.04e+00,
627,6.22e-01,1.92e+00,
628,6.83e-01,1.92e+00,
629,6.10e-01,2.04e+00,
630,6.71e-01,2.00e+00,
631,5.98e-01,1.92e+00,
632,6.59e-01,2.00e+00,
633,5.98e-01,1.92e+00,
634,5.98e-01,1.92e+00,
635,6.59e-01,2.04e+00,
636,6.47e-01,2.00e+00,
637,5.86e-01,1.92e+00,
638,6.34e-01,1.92e+00,
639,5.86e-01,2.00e+00,
640,6.34e-01,1.92e+00,
641,5.86e-01,2.00e+00,
642,6.34e-01,1.92e+00,
643,5.86e-01,2.04e+00,
644,5.86e-01,1.92e+00,
645,6.34e-01,2.00e+00,
646,5.73e-01,1.96e+00,
647,6.34e-01,1.92e+00,
648,6.22e-01,1.92e+00,
649,5.73e-01,1.96e+00,
650,6.22e-01,1.92e+00,
651,5.73e-01,2.00e+00,
652,6.22e-01,1.96e+00,
653,5.61e-01,1.92e+00,
654,5.73e-01,1.92e+00,
655,6.22e-01,2.00e+00,
656,5.61e-01,1.96e+00,
657,6.22e-01,1.92e+00,
658,5.61e-01,1.92e+00,
659,6.22e-01,2.00e+00,
660,6.10e-01,1.92e+00,
661,5.61e-01,2.00e+00,
662,5.61e-01,1.92e+00,
663,6.22e-01,2.00e+00,
664,5.61e-01,1.92e+00,
665,6.10e-01,2.04e+00,
666,6.10e-01,2.00e+00,
667,5.61e-01,1.92e+00,
668,5.61e-01,2.00e+00,
669,6.10e-01,1.92e+00,
670,6.10e-01,1.92e+00,
671,5.61e-01,2.04e+00,
672,5.61e-01,1.92e+00,
673,6.10e-01,2.00e+00,
674,5.61e-01,1.92e+00,
675,6.10e-01,2.00e+00,
676,6.10e-01,2.00e+00,
677,5.61e-01,1.92e+00,
678,6.10e-01,2.00e+00,
679,5.49e-01,1.92e+00,
680,6.10e-01,1.92e+00,
681,5.61e-01,2.04e+00,
682,5.61e-01,1.92e+00,
683,6.10e-01,2.04e+00,
684,5.61e-01,1.96e+00,
685,6.10e-01,1.92e+00,
686,6.10e-01,1.92e+00,
687,5.61e-01,1.96e+00,
688,5.61e-01,1.92e+00,
689,6.10e-01,1.96e+00,
690,5.61e-01,1.96e+00,
691,6.10e-01,1.92e+00,
692,5.61e-01,1.92e+00,
693,6.10e-01,2.00e+00,
694,5.61e-01,2.00e+00,
695,6.10e-01,1.92e+00,
696,5.61e-01,1.96e+00,
697,6.10e-01,1.92e+00,
698,6.10e-01,1.92e+00,
699,5.61e-01,2.00e+00,
700,5.49e-01,1.92e+00,
701,6.10e-01,2.00e+00,
702,5.49e-01,1.92e+00,
703,6.10e-01,2.00e+00,
704,6.10e-01,2.00e+00,
705,5.49e-01,1.92e+00,
706,6.10e-01,2.00e+00,
707,5.49e-01,1.92e+00,
708,5.49e-01,1.92e+00,
709,6.10e-01,2.00e+00,
710,5.49e-01,1.92e+00,
711,6.10e-01,2.00e+00,
712,6.10e-01,1.92e+00,
713,5.49e-01,2.00e+00,
714,5.61e-01,1.92e+00,
715,6.10e-01,2.00e+00,
716,6.10e-01,1.92e+00,
717,5.49e-01,2.00e+00,
718,6.10e-01,1.92e+00,
719,5.49e-01,2.00e+00,
720,6.10e-01,2.00e+00,
721,5.49e-01,1.92e+00,
722,5.61e-01,1.92e+00,
723,6.10e-01,2.00e+00,
724,6.10e-01,1.96e+00,
725,5.49e-01,1.92e+00,
726,5.61e-01,1.96e+00,
727,5.98e-01,1.92e+00,
728,5.49e-01,1.92e+00,
729,6.10e-01,2.00e+00,
730,5.49e-01,1.96e+00,
731,5.98e-01,1.92e+00,
732,5.49e-01,1.96e+00,
733,6.10e-01,1.92e+00,
734,5.49e-01,1.96e+00,
735,6.10e-01,1.92e+00,
736,5.49e-01,1.92e+00,
737,6.10e-01,2.00e+00,
738,5.49e-01,1.92e+00,
739,6.10e-01,2.00e+00,
740,5.49e-01,1.92e+00,
741,6.10e-01,2.00e+00,
742,5.49e-01,2.00e+00,
743,6.10e-01,1.92e+00,
744,5.49e-01,2.00e+00,
745,6.10e-01,1.92e+00,
746,5.49e-01,1.92e+00,
747,6.10e-01,2.00e+00,
748,6.10e-01,1.92e+00,
749,5.49e-01,2.00e+00,
750,6.10e-01,2.00e+00,
751,5.49e-01,1.92e+00,
752,5.49e-01,2.00e+00,
753,6.10e-01,1.92e+00,
754,6.10e-01,2.00e+00,
755,5.49e-01,1.92e+00,
756,6.10e-01,1.92e+00,
757,5.37e-01,2.00e+00,
758,5.49e-01,2.00e+00,
759,6.10e-01,1.92e+00,
760,5.98e-01,2.00e+00,
761,5.49e-01,1.92e+00,
762,5.98e-01,1.92e+00,
763,5.49e-01,2.00e+00,
764,5.49e-01,1.92e+00,
765,6.10e-01,2.00e+00,
766,6.10e-01,1.92e+00,
767,5.49e-01,1.96e+00,
768,5.49e-01,1.92e+00,
769,5.98e-01,2.00e+00,
770,5.49e-01,1.92e+00,
771,6.10e-01,2.00e+00,
772,5.49e-01,1.96e+00,
773,6.10e-01,1.92e+00,
774,5.49e-01,1.96e+00,
775,6.10e-01,1.92e+00,
776,5.98e-01,1.92e+00,
777,5.49e-01,2.00e+00,
778,5.98e-01,1.92e+00,
779,5.49e-01,2.00e+00,
780,6.10e-01,2.00e+00,
781,5.49e-01,1.92e+00,
782,6.10e-01,2.00e+00,
783,5.49e-01,1.92e+00,
784,5.61e-01,1.92e+00,
785,6.10e-01,2.00e+00,
786,6.10e-01,1.92e+00,
787,5.49e-01,2.00e+00,
788,5.49e-01,1.92e+00,
789,6.10e-01,2.00e+00,
790,5.49e-01,1.92e+00,
791,6.10e-01,2.04e+00,
792,5.98e-01,2.00e+00,
793,5.49e-01,1.92e+00,
794,6.10e-01,1.92e+00,
795,5.49e-01,2.00e+00,
796,6.10e-01,1.92e+00,
797,5.49e-01,2.00e+00,
798,5.49e-01,2.00e+00,
799,6.10e-01,1.92e+00,
800,5.49e-01,2.00e+00,
801,6.10e-01,1.92e+00,
802,5.98e-01,1.92e+00,
803,5.49e-01,2.00e+00,
804,6.10e-01,1.92e+00,
805,5.49e-01,1.96e+00,
806,5.49e-01,1.92e+00,
807,6.10e-01,2.00e+00,
808,5.98e-01,1.92e+00,
809,5.49e-01,2.00e+00,
810,5.49e-01,2.00e+00,
811,6.95e-01,-4.00e-02,
812,6.59e-01,-4.00e-02,
813,7.69e-01,4.00e-02,
814,7.32e-01,4.00e-02,
815,8.42e-01,-4.00e-02,
816,8.05e-01,4.00e-02,
817,9.03e-01,-4.00e-02,
818,8.54e-01,4.00e-02,
819,9.64e-01,-4.00e-02,
820,9.27e-01,-4.00e-02,
821,1.01e+00,4.00e-02,
822,9.76e-01,4.00e-02,
823,1.06e+00,-4.00e-02,
824,1.02e+00,4.00e-02,
825,1.12e+00,-4.00e-02,
826,1.07e+00,-4.00e-02,
827,1.15e+00,8.00e-02,
828,1.11e+00,4.00e-02,
829,1.18e+00,-4.00e-02,
830,1.15e+00,4.00e-02,
831,1.22e+00,-4.00e-02,
832,1.18e+00,-4.00e-02,
833,1.26e+00,4.00e-02,
834,1.21e+00,4.00e-02,
835,1.28e+00,-4.00e-02,
836,1.24e+00,4.00e-02,
837,1.32e+00,-4.00e-02,
838,1.27e+00,-4.00e-02,
839,1.34e+00,4.00e-02,
840,1.31e+00,-4.00e-02,
841,1.37e+00,4.00e-02,
842,1.32e+00,4.00e-02,
843,1.39e+00,-4.00e-02,
844,1.34e+00,4.00e-02,
845,1.40e+00,-4.00e-02,
846,1.37e+00,-4.00e-02,
847,1.43e+00,4.00e-02,
848,1.38e+00,4.00e-02,
849,1.45e+00,-4.00e-02,
850,1.39e+00,4.00e-02,
851,1.48e+00,-4.00e-02,
852,1.43e+00,-4.00e-02,
853,1.48e+00,4.00e-02,
854,1.44e+00,4.00e-02,
855,1.50e+00,-4.00e-02,
856,1.45e+00,-4.00e-02,
857,1.51e+00,4.00e-02,
858,1.46e+00,4.00e-02,
859,1.52e+00,-4.00e-02,
860,1.48e+00,4.00e-02,
