2026-Spring/Intro-to-Sensor/Homework3/sensor_Lab/5000_1.csv

X,CH1,CH2,Start,Increment,
Sequence,Volt,Volt,-3.000000e-04,5.000000e-07
0,7.20e-01,1.96e+00,
1,7.49e-01,2.04e+00,
2,7.20e-01,1.96e+00,
3,7.49e-01,2.04e+00,
4,7.49e-01,1.96e+00,
5,7.20e-01,2.04e+00,
6,7.49e-01,2.04e+00,
7,7.20e-01,1.96e+00,
8,7.49e-01,2.04e+00,
9,7.20e-01,1.96e+00,
10,7.49e-01,1.96e+00,
11,7.20e-01,2.04e+00,
12,7.20e-01,1.96e+00,
13,7.49e-01,2.04e+00,
14,7.49e-01,1.96e+00,
15,7.20e-01,2.04e+00,
16,7.20e-01,2.04e+00,
17,7.49e-01,1.96e+00,
18,7.49e-01,2.04e+00,
19,7.20e-01,1.96e+00,
20,7.20e-01,1.96e+00,
21,7.49e-01,2.04e+00,
22,7.20e-01,1.96e+00,
23,7.49e-01,2.04e+00,
24,7.49e-01,1.96e+00,
25,7.20e-01,2.04e+00,
26,7.20e-01,1.96e+00,
27,7.49e-01,2.04e+00,
28,7.49e-01,1.96e+00,
29,7.20e-01,2.04e+00,
30,7.30e-01,2.04e+00,
31,7.49e-01,1.96e+00,
32,7.49e-01,2.04e+00,
33,7.20e-01,1.96e+00,
34,7.49e-01,2.04e+00,
35,7.20e-01,1.96e+00,
36,7.20e-01,1.96e+00,
37,7.49e-01,2.04e+00,
38,7.49e-01,1.96e+00,
39,7.20e-01,2.04e+00,
40,7.49e-01,1.96e+00,
41,7.20e-01,2.04e+00,
42,7.49e-01,1.96e+00,
43,7.20e-01,2.04e+00,
44,7.49e-01,2.04e+00,
45,7.10e-01,1.96e+00,
46,7.49e-01,1.96e+00,
47,7.20e-01,2.04e+00,
48,7.39e-01,2.04e+00,
49,7.20e-01,1.96e+00,
50,7.30e-01,2.04e+00,
51,7.49e-01,1.96e+00,
52,7.20e-01,1.96e+00,
53,7.49e-01,2.04e+00,
54,7.49e-01,1.96e+00,
55,7.20e-01,2.04e+00,
56,7.39e-01,1.96e+00,
57,7.20e-01,2.04e+00,
58,7.49e-01,2.04e+00,
59,7.20e-01,1.96e+00,
60,7.20e-01,2.04e+00,
61,7.49e-01,1.96e+00,
62,7.49e-01,2.04e+00,
63,7.10e-01,1.96e+00,
64,7.39e-01,1.96e+00,
65,7.10e-01,2.04e+00,
66,7.20e-01,2.04e+00,
67,7.39e-01,1.96e+00,
68,7.20e-01,1.96e+00,
69,7.39e-01,2.04e+00,
70,7.30e-01,2.04e+00,
71,7.20e-01,1.96e+00,
72,6.43e-01,2.04e+00,
73,7.68e-01,-4.00e-02,
74,7.49e-01,4.00e-02,
75,7.20e-01,0.00e+00,
76,7.39e-01,4.00e-02,
77,7.20e-01,0.00e+00,
78,7.20e-01,4.00e-02,
79,7.49e-01,-4.00e-02,
80,7.49e-01,4.00e-02,
81,7.20e-01,-4.00e-02,
82,7.20e-01,4.00e-02,
83,7.49e-01,-4.00e-02,
84,7.20e-01,4.00e-02,
85,7.49e-01,-4.00e-02,
86,7.20e-01,4.00e-02,
87,7.49e-01,-4.00e-02,
88,7.49e-01,4.00e-02,
89,7.20e-01,-4.00e-02,
90,7.49e-01,4.00e-02,
91,7.20e-01,-4.00e-02,
92,7.20e-01,4.00e-02,
93,7.49e-01,-4.00e-02,
94,7.49e-01,4.00e-02,
95,7.20e-01,-4.00e-02,
96,7.49e-01,4.00e-02,
97,7.20e-01,-4.00e-02,
98,7.49e-01,-4.00e-02,
99,7.20e-01,4.00e-02,
100,7.20e-01,4.00e-02,
101,7.49e-01,-4.00e-02,
102,7.58e-01,4.00e-02,
103,7.20e-01,-4.00e-02,
104,7.20e-01,4.00e-02,
105,7.49e-01,-4.00e-02,
106,7.20e-01,4.00e-02,
107,7.49e-01,-4.00e-02,
108,7.49e-01,4.00e-02,
109,7.30e-01,-4.00e-02,
110,7.30e-01,4.00e-02,
111,7.49e-01,-4.00e-02,
112,7.30e-01,4.00e-02,
113,7.49e-01,-4.00e-02,
114,7.49e-01,4.00e-02,
115,7.30e-01,-4.00e-02,
116,7.58e-01,4.00e-02,
117,7.20e-01,-4.00e-02,
118,7.49e-01,-4.00e-02,
119,7.20e-01,4.00e-02,
120,7.30e-01,-4.00e-02,
121,7.49e-01,4.00e-02,
122,7.39e-01,-4.00e-02,
123,7.49e-01,4.00e-02,
124,7.49e-01,4.00e-02,
125,7.39e-01,-4.00e-02,
126,7.39e-01,4.00e-02,
127,7.49e-01,-4.00e-02,
128,7.49e-01,-4.00e-02,
129,7.30e-01,4.00e-02,
130,7.39e-01,4.00e-02,
131,7.49e-01,-4.00e-02,
132,7.30e-01,4.00e-02,
133,7.58e-01,-4.00e-02,
134,7.30e-01,4.00e-02,
135,7.58e-01,-4.00e-02,
136,7.30e-01,4.00e-02,
137,7.58e-01,-4.00e-02,
138,7.30e-01,4.00e-02,
139,7.58e-01,-4.00e-02,
140,7.39e-01,4.00e-02,
141,7.49e-01,-4.00e-02,
142,7.39e-01,-4.00e-02,
143,7.49e-01,4.00e-02,
144,7.39e-01,4.00e-02,
145,7.49e-01,-4.00e-02,
146,7.39e-01,4.00e-02,
147,7.58e-01,-4.00e-02,
148,7.39e-01,4.00e-02,
149,7.58e-01,-4.00e-02,
150,7.58e-01,-4.00e-02,
151,7.30e-01,4.00e-02,
152,7.58e-01,4.00e-02,
153,7.30e-01,-4.00e-02,
154,7.30e-01,-4.00e-02,
155,7.58e-01,4.00e-02,
156,7.58e-01,4.00e-02,
157,7.30e-01,-4.00e-02,
158,7.39e-01,4.00e-02,
159,7.58e-01,-4.00e-02,
160,7.39e-01,-4.00e-02,
161,7.58e-01,4.00e-02,
162,7.39e-01,4.00e-02,
163,7.58e-01,-4.00e-02,
164,7.39e-01,-4.00e-02,
165,7.58e-01,4.00e-02,
166,7.39e-01,4.00e-02,
167,7.58e-01,-4.00e-02,
168,7.39e-01,4.00e-02,
169,7.58e-01,-4.00e-02,
170,7.58e-01,4.00e-02,
171,7.30e-01,-4.00e-02,
172,7.30e-01,4.00e-02,
173,7.68e-01,-4.00e-02,
174,7.39e-01,4.00e-02,
175,7.58e-01,-4.00e-02,
176,7.39e-01,4.00e-02,
177,7.58e-01,-4.00e-02,
178,7.39e-01,4.00e-02,
179,7.58e-01,-4.00e-02,
180,7.39e-01,-4.00e-02,
181,7.58e-01,4.00e-02,
182,7.39e-01,4.00e-02,
183,7.58e-01,-4.00e-02,
184,7.39e-01,4.00e-02,
185,7.58e-01,-4.00e-02,
186,7.39e-01,-4.00e-02,
187,7.58e-01,4.00e-02,
188,7.39e-01,-4.00e-02,
189,7.58e-01,4.00e-02,
190,7.58e-01,4.00e-02,
191,7.30e-01,-4.00e-02,
192,7.39e-01,4.00e-02,
193,7.58e-01,-4.00e-02,
194,7.39e-01,4.00e-02,
195,7.58e-01,-4.00e-02,
196,7.39e-01,4.00e-02,
197,7.58e-01,-4.00e-02,
198,7.39e-01,4.00e-02,
199,7.58e-01,-4.00e-02,
200,7.39e-01,4.00e-02,
201,7.58e-01,-4.00e-02,
202,7.39e-01,4.00e-02,
203,7.58e-01,-4.00e-02,
204,7.39e-01,4.00e-02,
205,7.58e-01,-4.00e-02,
206,7.39e-01,4.00e-02,
207,7.58e-01,-4.00e-02,
208,7.68e-01,-4.00e-02,
209,7.20e-01,4.00e-02,
210,7.39e-01,4.00e-02,
211,7.58e-01,-4.00e-02,
212,7.39e-01,4.00e-02,
213,7.58e-01,-4.00e-02,
214,7.39e-01,4.00e-02,
215,7.58e-01,-4.00e-02,
216,7.39e-01,4.00e-02,
217,7.58e-01,-4.00e-02,
218,7.39e-01,4.00e-02,
219,7.58e-01,-4.00e-02,
220,7.58e-01,4.00e-02,
221,7.39e-01,-4.00e-02,
222,7.58e-01,4.00e-02,
223,7.39e-01,-4.00e-02,
224,7.39e-01,4.00e-02,
225,7.68e-01,-4.00e-02,
226,7.39e-01,4.00e-02,
227,7.68e-01,-4.00e-02,
228,7.58e-01,4.00e-02,
229,7.39e-01,-4.00e-02,
230,7.58e-01,4.00e-02,
231,7.39e-01,-4.00e-02,
232,7.58e-01,4.00e-02,
233,7.39e-01,-4.00e-02,
234,7.49e-01,4.00e-02,
235,7.58e-01,-4.00e-02,
236,7.39e-01,4.00e-02,
237,7.58e-01,-4.00e-02,
238,7.58e-01,4.00e-02,
239,7.49e-01,-4.00e-02,
240,7.39e-01,4.00e-02,
241,7.68e-01,-4.00e-02,
242,7.39e-01,4.00e-02,
243,7.68e-01,-4.00e-02,
244,7.39e-01,4.00e-02,
245,7.68e-01,-4.00e-02,
246,7.49e-01,4.00e-02,
247,7.58e-01,-4.00e-02,
248,7.49e-01,4.00e-02,
249,7.58e-01,-4.00e-02,
250,7.49e-01,4.00e-02,
251,7.58e-01,-4.00e-02,
252,7.49e-01,4.00e-02,
253,7.58e-01,-4.00e-02,
254,7.49e-01,4.00e-02,
255,7.58e-01,-4.00e-02,
256,7.49e-01,4.00e-02,
257,7.58e-01,-4.00e-02,
258,7.39e-01,4.00e-02,
259,7.68e-01,-4.00e-02,
260,7.39e-01,4.00e-02,
261,7.68e-01,-4.00e-02,
262,7.68e-01,4.00e-02,
263,7.39e-01,-4.00e-02,
264,7.49e-01,4.00e-02,
265,7.58e-01,-4.00e-02,
266,7.49e-01,-4.00e-02,
267,7.58e-01,4.00e-02,
268,7.49e-01,4.00e-02,
269,7.58e-01,-4.00e-02,
270,7.49e-01,4.00e-02,
271,7.68e-01,-4.00e-02,
272,7.49e-01,4.00e-02,
273,7.58e-01,-4.00e-02,
274,7.49e-01,4.00e-02,
275,7.58e-01,-4.00e-02,
276,7.49e-01,4.00e-02,
277,7.58e-01,-4.00e-02,
278,7.58e-01,4.00e-02,
279,7.49e-01,-4.00e-02,
280,7.49e-01,4.00e-02,
281,7.58e-01,-4.00e-02,
282,7.10e-01,0.00e+00,
283,8.45e-01,2.48e+00,
284,7.58e-01,2.04e+00,
285,7.39e-01,1.96e+00,
286,7.58e-01,2.04e+00,
287,7.39e-01,1.96e+00,
288,7.39e-01,2.04e+00,
289,7.58e-01,1.96e+00,
290,7.39e-01,2.04e+00,
291,7.68e-01,1.96e+00,
292,7.30e-01,2.04e+00,
293,7.68e-01,1.96e+00,
294,7.58e-01,1.96e+00,
295,7.39e-01,2.04e+00,
296,7.58e-01,2.04e+00,
297,7.39e-01,1.96e+00,
298,7.39e-01,2.04e+00,
299,7.58e-01,1.96e+00,
300,7.39e-01,1.96e+00,
301,7.58e-01,2.04e+00,
302,7.39e-01,2.04e+00,
303,7.58e-01,1.96e+00,
304,7.39e-01,2.04e+00,
305,7.58e-01,1.96e+00,
306,7.39e-01,2.04e+00,
307,7.58e-01,1.96e+00,
308,7.39e-01,1.96e+00,
309,7.58e-01,2.04e+00,
310,7.30e-01,1.96e+00,
311,7.68e-01,2.04e+00,
312,7.39e-01,2.04e+00,
313,7.58e-01,1.96e+00,
314,7.39e-01,2.04e+00,
315,7.58e-01,1.96e+00,
316,7.39e-01,2.04e+00,
317,7.58e-01,1.96e+00,
318,7.39e-01,2.04e+00,
319,7.58e-01,1.96e+00,
320,7.39e-01,2.04e+00,
321,7.58e-01,1.96e+00,
322,7.39e-01,2.04e+00,
323,7.58e-01,1.96e+00,
324,7.39e-01,2.04e+00,
325,7.58e-01,1.96e+00,
326,7.39e-01,2.04e+00,
327,7.58e-01,1.96e+00,
328,7.58e-01,2.04e+00,
329,7.20e-01,1.96e+00,
330,7.39e-01,1.96e+00,
331,7.58e-01,2.04e+00,
332,7.39e-01,2.04e+00,
333,7.58e-01,1.96e+00,
334,7.39e-01,2.04e+00,
335,7.58e-01,1.96e+00,
336,7.39e-01,2.04e+00,
337,7.58e-01,1.96e+00,
338,7.39e-01,2.04e+00,
339,7.58e-01,1.96e+00,
340,7.39e-01,2.04e+00,
341,7.58e-01,1.96e+00,
342,7.58e-01,1.96e+00,
343,7.30e-01,2.04e+00,
344,7.58e-01,2.04e+00,
345,7.30e-01,1.96e+00,
346,7.30e-01,2.04e+00,
347,7.58e-01,1.96e+00,
348,7.39e-01,2.04e+00,
349,7.58e-01,1.96e+00,
350,7.39e-01,2.04e+00,
351,7.58e-01,1.96e+00,
352,7.39e-01,2.04e+00,
353,7.58e-01,1.96e+00,
354,7.39e-01,1.96e+00,
355,7.58e-01,2.04e+00,
356,7.39e-01,2.04e+00,
357,7.49e-01,1.96e+00,
358,7.39e-01,2.04e+00,
359,7.49e-01,1.96e+00,
360,7.49e-01,2.04e+00,
361,7.20e-01,1.96e+00,
362,7.30e-01,1.96e+00,
363,7.58e-01,2.04e+00,
364,7.58e-01,2.04e+00,
365,7.30e-01,1.96e+00,
366,7.39e-01,2.04e+00,
367,7.49e-01,1.96e+00,
368,7.39e-01,2.04e+00,
369,7.49e-01,1.96e+00,
370,7.39e-01,2.04e+00,
371,7.30e-01,1.96e+00,
372,7.49e-01,1.96e+00,
373,7.30e-01,2.04e+00,
374,7.49e-01,2.04e+00,
375,7.20e-01,1.96e+00,
376,7.49e-01,1.96e+00,
377,7.30e-01,2.04e+00,
378,7.30e-01,1.96e+00,
379,7.58e-01,2.04e+00,
380,7.49e-01,2.04e+00,
381,7.20e-01,1.96e+00,
382,7.49e-01,2.04e+00,
383,7.20e-01,1.96e+00,
384,7.49e-01,1.96e+00,
385,7.20e-01,2.04e+00,
386,7.30e-01,2.04e+00,
387,7.49e-01,1.96e+00,
388,7.49e-01,1.96e+00,
389,7.20e-01,2.04e+00,
390,7.49e-01,1.96e+00,
391,7.20e-01,2.04e+00,
392,7.20e-01,1.96e+00,
393,7.49e-01,2.04e+00,
394,7.49e-01,1.96e+00,
395,7.20e-01,2.04e+00,
396,7.20e-01,1.96e+00,
397,7.49e-01,2.04e+00,
398,7.20e-01,1.96e+00,
399,7.49e-01,2.04e+00,
400,7.20e-01,1.96e+00,
401,7.49e-01,2.04e+00,
402,7.49e-01,1.96e+00,
403,7.20e-01,2.04e+00,
404,7.20e-01,2.00e+00,
405,7.49e-01,1.96e+00,
406,7.39e-01,2.04e+00,
407,7.20e-01,1.96e+00,
408,7.30e-01,1.96e+00,
409,7.49e-01,2.04e+00,
410,7.49e-01,2.04e+00,
411,7.20e-01,1.96e+00,
412,7.49e-01,1.96e+00,
413,7.20e-01,2.04e+00,
414,7.20e-01,1.96e+00,
415,7.49e-01,2.04e+00,
416,7.20e-01,1.96e+00,
417,7.58e-01,2.04e+00,
418,7.20e-01,2.04e+00,
419,7.49e-01,1.96e+00,
420,7.49e-01,2.04e+00,
421,7.20e-01,1.96e+00,
422,7.49e-01,2.04e+00,
423,7.20e-01,1.96e+00,
424,7.49e-01,2.04e+00,
425,7.20e-01,1.96e+00,
426,7.20e-01,1.96e+00,
427,7.49e-01,2.04e+00,
428,7.49e-01,1.96e+00,
429,7.20e-01,2.04e+00,
430,7.20e-01,2.04e+00,
431,7.49e-01,1.96e+00,
432,7.49e-01,2.04e+00,
433,7.20e-01,1.96e+00,
434,7.39e-01,2.04e+00,
435,7.20e-01,1.96e+00,
436,7.20e-01,2.04e+00,
437,7.49e-01,1.96e+00,
438,7.20e-01,2.04e+00,
439,7.49e-01,1.96e+00,
440,7.20e-01,1.96e+00,
441,7.49e-01,2.04e+00,
442,7.20e-01,2.04e+00,
443,7.49e-01,1.96e+00,
444,7.49e-01,2.04e+00,
445,7.20e-01,1.96e+00,
446,7.49e-01,1.96e+00,
447,7.20e-01,2.04e+00,
448,7.20e-01,1.96e+00,
449,7.49e-01,2.04e+00,
450,7.49e-01,2.04e+00,
451,7.20e-01,1.96e+00,
452,7.49e-01,2.04e+00,
453,7.20e-01,1.96e+00,
454,7.39e-01,2.04e+00,
455,7.20e-01,1.96e+00,
456,7.20e-01,1.96e+00,
457,7.49e-01,2.04e+00,
458,7.20e-01,2.04e+00,
459,7.49e-01,1.96e+00,
460,7.39e-01,2.04e+00,
461,7.20e-01,1.96e+00,
462,7.20e-01,2.04e+00,
463,7.49e-01,1.96e+00,
464,7.49e-01,2.04e+00,
465,7.20e-01,1.96e+00,
466,7.49e-01,1.96e+00,
467,7.20e-01,2.04e+00,
468,7.39e-01,2.04e+00,
469,7.20e-01,1.96e+00,
470,7.49e-01,1.96e+00,
471,7.20e-01,2.04e+00,
472,7.49e-01,2.04e+00,
473,7.20e-01,1.96e+00,
474,7.39e-01,2.04e+00,
475,7.20e-01,1.96e+00,
476,7.20e-01,2.04e+00,
477,7.49e-01,1.96e+00,
478,7.49e-01,1.96e+00,
479,7.20e-01,2.04e+00,
480,7.20e-01,2.04e+00,
481,7.49e-01,1.96e+00,
482,7.39e-01,2.04e+00,
483,7.20e-01,1.96e+00,
484,7.10e-01,2.04e+00,
485,7.49e-01,1.96e+00,
486,7.20e-01,2.04e+00,
487,7.49e-01,1.96e+00,
488,7.49e-01,2.04e+00,
489,7.10e-01,1.96e+00,
490,7.20e-01,2.04e+00,
491,7.39e-01,1.96e+00,
492,7.39e-01,2.04e+00,
493,7.20e-01,1.96e+00,
494,7.20e-01,2.04e+00,
495,7.39e-01,1.96e+00,
496,7.20e-01,1.96e+00,
497,7.39e-01,2.04e+00,
498,7.30e-01,2.04e+00,
499,7.20e-01,1.96e+00,
500,7.20e-01,2.04e+00,
501,7.30e-01,1.96e+00,
502,7.39e-01,2.04e+00,
503,7.10e-01,1.96e+00,
504,6.43e-01,2.04e+00,
505,7.68e-01,-4.00e-02,
506,7.49e-01,4.00e-02,
507,7.10e-01,0.00e+00,
508,7.20e-01,4.00e-02,
509,7.49e-01,-4.00e-02,
510,7.20e-01,4.00e-02,
511,7.49e-01,0.00e+00,
512,7.20e-01,4.00e-02,
513,7.49e-01,-4.00e-02,
514,7.20e-01,4.00e-02,
515,7.49e-01,-4.00e-02,
516,7.20e-01,4.00e-02,
517,7.49e-01,-4.00e-02,
518,7.20e-01,4.00e-02,
519,7.49e-01,-4.00e-02,
520,7.49e-01,-4.00e-02,
521,7.20e-01,4.00e-02,
522,7.20e-01,4.00e-02,
523,7.49e-01,-4.00e-02,
524,7.49e-01,4.00e-02,
525,7.20e-01,-4.00e-02,
526,7.20e-01,-4.00e-02,
527,7.49e-01,4.00e-02,
528,7.49e-01,4.00e-02,
529,7.20e-01,-4.00e-02,
530,7.39e-01,4.00e-02,
531,7.20e-01,-4.00e-02,
532,7.30e-01,4.00e-02,
533,7.49e-01,-4.00e-02,
534,7.49e-01,4.00e-02,
535,7.20e-01,-4.00e-02,
536,7.49e-01,4.00e-02,
537,7.20e-01,-4.00e-02,
538,7.20e-01,4.00e-02,
539,7.39e-01,-4.00e-02,
540,7.49e-01,4.00e-02,
541,7.20e-01,-4.00e-02,
542,7.20e-01,-4.00e-02,
543,7.49e-01,4.00e-02,
544,7.20e-01,-4.00e-02,
545,7.49e-01,4.00e-02,
546,7.20e-01,4.00e-02,
547,7.58e-01,-4.00e-02,
548,7.30e-01,4.00e-02,
549,7.58e-01,-4.00e-02,
550,7.30e-01,4.00e-02,
551,7.49e-01,-4.00e-02,
552,7.39e-01,4.00e-02,
553,7.49e-01,-4.00e-02,
554,7.49e-01,4.00e-02,
555,7.30e-01,-4.00e-02,
556,7.49e-01,-4.00e-02,
557,7.30e-01,4.00e-02,
558,7.39e-01,4.00e-02,
559,7.49e-01,-4.00e-02,
560,7.39e-01,4.00e-02,
561,7.39e-01,-4.00e-02,
562,7.20e-01,4.00e-02,
563,7.58e-01,-4.00e-02,
564,7.49e-01,-4.00e-02,
565,7.20e-01,4.00e-02,
566,7.30e-01,-4.00e-02,
567,7.49e-01,4.00e-02,
568,7.39e-01,4.00e-02,
569,7.49e-01,-4.00e-02,
570,7.39e-01,4.00e-02,
571,7.49e-01,-4.00e-02,
572,7.39e-01,4.00e-02,
573,7.49e-01,-4.00e-02,
574,7.49e-01,4.00e-02,
575,7.39e-01,-4.00e-02,
576,7.39e-01,4.00e-02,
577,7.49e-01,-4.00e-02,
578,7.30e-01,4.00e-02,
579,7.58e-01,-4.00e-02,
580,7.58e-01,4.00e-02,
581,7.30e-01,-4.00e-02,
582,7.20e-01,-4.00e-02,
583,7.58e-01,4.00e-02,
584,7.30e-01,-4.00e-02,
585,7.58e-01,4.00e-02,
586,7.39e-01,-4.00e-02,
587,7.58e-01,4.00e-02,
588,7.39e-01,4.00e-02,
589,7.58e-01,-4.00e-02,
590,7.39e-01,-4.00e-02,
591,7.58e-01,4.00e-02,
592,7.39e-01,-4.00e-02,
593,7.58e-01,4.00e-02,
594,7.39e-01,4.00e-02,
595,7.58e-01,-4.00e-02,
596,7.58e-01,-4.00e-02,
597,7.30e-01,4.00e-02,
598,7.58e-01,4.00e-02,
599,7.30e-01,-4.00e-02,
600,7.58e-01,4.00e-02,
601,7.30e-01,-4.00e-02,
602,7.39e-01,4.00e-02,
603,7.58e-01,-4.00e-02,
604,7.39e-01,4.00e-02,
605,7.58e-01,-4.00e-02,
606,7.39e-01,4.00e-02,
607,7.58e-01,-4.00e-02,
608,7.58e-01,4.00e-02,
609,7.39e-01,-4.00e-02,
610,7.39e-01,4.00e-02,
611,7.58e-01,-4.00e-02,
612,7.39e-01,4.00e-02,
613,7.58e-01,-4.00e-02,
614,7.39e-01,4.00e-02,
615,7.58e-01,-4.00e-02,
616,7.39e-01,4.00e-02,
617,7.58e-01,-4.00e-02,
618,7.58e-01,4.00e-02,
619,7.30e-01,-4.00e-02,
620,7.39e-01,4.00e-02,
621,7.58e-01,-4.00e-02,
622,7.39e-01,4.00e-02,
623,7.58e-01,-4.00e-02,
624,7.39e-01,4.00e-02,
625,7.58e-01,-4.00e-02,
626,7.39e-01,4.00e-02,
627,7.58e-01,-4.00e-02,
628,7.39e-01,-4.00e-02,
629,7.58e-01,4.00e-02,
630,7.39e-01,4.00e-02,
631,7.58e-01,-4.00e-02,
632,7.39e-01,4.00e-02,
633,7.58e-01,-4.00e-02,
634,7.39e-01,4.00e-02,
635,7.58e-01,-4.00e-02,
636,7.30e-01,-4.00e-02,
637,7.68e-01,4.00e-02,
638,7.39e-01,4.00e-02,
639,7.58e-01,-4.00e-02,
640,7.39e-01,4.00e-02,
641,7.58e-01,-4.00e-02,
642,7.39e-01,4.00e-02,
643,7.58e-01,-4.00e-02,
644,7.39e-01,-4.00e-02,
645,7.58e-01,4.00e-02,
646,7.39e-01,4.00e-02,
647,7.58e-01,-4.00e-02,
648,7.39e-01,4.00e-02,
649,7.58e-01,-4.00e-02,
650,7.39e-01,4.00e-02,
651,7.58e-01,-4.00e-02,
652,7.39e-01,4.00e-02,
653,7.58e-01,-4.00e-02,
654,7.68e-01,4.00e-02,
655,7.30e-01,-4.00e-02,
656,7.58e-01,-4.00e-02,
657,7.39e-01,4.00e-02,
658,7.39e-01,4.00e-02,
659,7.58e-01,-4.00e-02,
660,7.39e-01,4.00e-02,
661,7.58e-01,-4.00e-02,
662,7.39e-01,4.00e-02,
663,7.58e-01,-4.00e-02,
664,7.39e-01,-4.00e-02,
665,7.58e-01,4.00e-02,
666,7.39e-01,4.00e-02,
667,7.58e-01,-4.00e-02,
668,7.58e-01,4.00e-02,
669,7.39e-01,-4.00e-02,
670,7.39e-01,4.00e-02,
671,7.68e-01,-4.00e-02,
672,7.68e-01,4.00e-02,
673,7.39e-01,-4.00e-02,
674,7.49e-01,4.00e-02,
675,7.58e-01,-4.00e-02,
676,7.49e-01,4.00e-02,
677,7.58e-01,-4.00e-02,
678,7.58e-01,4.00e-02,
679,7.39e-01,-4.00e-02,
680,7.49e-01,4.00e-02,
681,7.58e-01,-4.00e-02,
682,7.58e-01,-4.00e-02,
683,7.49e-01,4.00e-02,
684,7.49e-01,4.00e-02,
685,7.58e-01,-4.00e-02,
686,7.58e-01,-4.00e-02,
687,7.39e-01,4.00e-02,
688,7.39e-01,4.00e-02,
689,7.68e-01,-4.00e-02,
690,7.39e-01,4.00e-02,
691,7.68e-01,-4.00e-02,
692,7.49e-01,-4.00e-02,
693,7.58e-01,4.00e-02,
694,7.49e-01,4.00e-02,
695,7.58e-01,-4.00e-02,
696,7.49e-01,4.00e-02,
697,7.58e-01,-4.00e-02,
698,7.49e-01,4.00e-02,
699,7.58e-01,-4.00e-02,
700,7.49e-01,4.00e-02,
701,7.58e-01,-4.00e-02,
702,7.49e-01,4.00e-02,
703,7.58e-01,-4.00e-02,
704,7.68e-01,4.00e-02,
705,7.39e-01,-4.00e-02,
706,7.39e-01,4.00e-02,
707,7.68e-01,-4.00e-02,
708,7.39e-01,-4.00e-02,
709,7.68e-01,4.00e-02,
710,7.49e-01,4.00e-02,
711,7.58e-01,-4.00e-02,
712,7.01e-01,-4.00e-02,
713,8.45e-01,2.48e+00,
714,7.68e-01,2.04e+00,
715,7.39e-01,1.96e+00,
716,7.39e-01,1.96e+00,
717,7.58e-01,2.04e+00,
718,7.39e-01,1.96e+00,
719,7.58e-01,2.04e+00,
720,7.39e-01,2.04e+00,
721,7.58e-01,1.96e+00,
722,7.39e-01,1.96e+00,
723,7.58e-01,2.04e+00,
724,7.39e-01,1.96e+00,
725,7.68e-01,2.04e+00,
726,7.30e-01,2.04e+00,
727,7.68e-01,1.96e+00,
728,7.39e-01,2.04e+00,
729,7.58e-01,1.96e+00,
730,7.39e-01,1.96e+00,
731,7.58e-01,2.04e+00,
732,7.39e-01,2.04e+00,
733,7.58e-01,1.96e+00,
734,7.39e-01,2.04e+00,
735,7.58e-01,1.96e+00,
736,7.39e-01,2.04e+00,
737,7.58e-01,1.96e+00,
738,7.39e-01,2.04e+00,
739,7.58e-01,1.96e+00,
740,7.39e-01,2.04e+00,
741,7.58e-01,1.96e+00,
742,7.39e-01,2.04e+00,
743,7.58e-01,1.96e+00,
744,7.30e-01,2.04e+00,
745,7.58e-01,1.96e+00,
746,7.39e-01,2.04e+00,
747,7.58e-01,1.96e+00,
748,7.39e-01,1.96e+00,
749,7.58e-01,2.04e+00,
750,7.39e-01,2.04e+00,
751,7.58e-01,1.96e+00,
752,7.39e-01,2.04e+00,
753,7.58e-01,1.96e+00,
754,7.58e-01,2.04e+00,
755,7.39e-01,1.96e+00,
756,7.39e-01,2.04e+00,
757,7.58e-01,1.96e+00,
758,7.39e-01,2.04e+00,
759,7.58e-01,1.96e+00,
760,7.58e-01,2.04e+00,
761,7.30e-01,1.96e+00,
762,7.30e-01,2.04e+00,
763,7.58e-01,1.96e+00,
764,7.39e-01,2.04e+00,
765,7.58e-01,1.96e+00,
766,7.39e-01,2.04e+00,
767,7.58e-01,1.96e+00,
768,7.39e-01,2.04e+00,
769,7.58e-01,1.96e+00,
770,7.39e-01,2.04e+00,
771,7.58e-01,1.96e+00,
772,7.39e-01,2.04e+00,
773,7.58e-01,1.96e+00,
774,7.39e-01,2.04e+00,
775,7.49e-01,1.96e+00,
776,7.39e-01,2.04e+00,
777,7.49e-01,1.96e+00,
778,7.39e-01,2.04e+00,
779,7.58e-01,1.96e+00,
780,7.39e-01,2.04e+00,
781,7.49e-01,1.96e+00,
782,7.39e-01,2.04e+00,
783,7.49e-01,1.96e+00,
784,7.39e-01,2.04e+00,
785,7.49e-01,1.96e+00,
786,7.39e-01,1.96e+00,
787,7.49e-01,2.04e+00,
788,7.49e-01,2.04e+00,
789,7.20e-01,1.96e+00,
790,7.20e-01,1.96e+00,
791,7.58e-01,2.04e+00,
792,7.20e-01,2.04e+00,
793,7.58e-01,1.96e+00,
794,7.58e-01,1.96e+00,
795,7.30e-01,2.04e+00,
796,7.49e-01,2.04e+00,
797,7.30e-01,1.96e+00,
798,7.49e-01,2.04e+00,
799,7.30e-01,1.96e+00,
800,7.49e-01,2.04e+00,
801,7.30e-01,1.96e+00,
802,7.30e-01,2.04e+00,
803,7.49e-01,1.96e+00,
804,7.30e-01,2.04e+00,
805,7.49e-01,1.96e+00,
806,7.30e-01,2.04e+00,
807,7.49e-01,1.96e+00,
808,7.30e-01,2.04e+00,
809,7.58e-01,1.96e+00,
810,7.58e-01,2.04e+00,
811,7.20e-01,1.96e+00,
812,7.49e-01,1.96e+00,
813,7.20e-01,2.04e+00,
814,7.49e-01,2.04e+00,
815,7.20e-01,1.96e+00,
816,7.20e-01,1.96e+00,
817,7.49e-01,2.04e+00,
818,7.20e-01,2.04e+00,
819,7.49e-01,1.96e+00,
820,7.20e-01,2.04e+00,
821,7.49e-01,1.96e+00,
822,7.49e-01,1.96e+00,
823,7.20e-01,2.04e+00,
824,7.39e-01,2.04e+00,
825,7.20e-01,1.96e+00,
826,7.30e-01,2.04e+00,
827,7.49e-01,1.96e+00,
828,7.49e-01,2.04e+00,
829,7.10e-01,1.96e+00,
830,7.49e-01,2.04e+00,
831,7.20e-01,1.96e+00,
832,7.20e-01,2.04e+00,
833,7.39e-01,1.96e+00,
834,7.49e-01,1.96e+00,
835,7.20e-01,2.04e+00,
836,7.20e-01,1.96e+00,
837,7.49e-01,2.04e+00,
838,7.20e-01,1.96e+00,
839,7.49e-01,2.04e+00,
840,7.20e-01,2.04e+00,
841,7.49e-01,1.96e+00,
842,7.20e-01,2.04e+00,
843,7.49e-01,1.96e+00,
844,7.20e-01,2.04e+00,
845,7.49e-01,1.96e+00,
846,7.20e-01,2.04e+00,
847,7.49e-01,1.96e+00,
848,7.49e-01,1.96e+00,
849,7.20e-01,2.04e+00,
850,7.49e-01,2.04e+00,
851,7.20e-01,1.96e+00,
852,7.39e-01,1.96e+00,
853,7.20e-01,2.04e+00,
854,7.20e-01,2.04e+00,
855,7.39e-01,1.96e+00,
856,7.49e-01,2.04e+00,
857,7.20e-01,1.96e+00,
858,7.49e-01,2.04e+00,
859,7.20e-01,1.96e+00,
860,7.20e-01,1.96e+00,
861,7.49e-01,2.04e+00,
