2026-Spring/Intro-to-Sensor/Homework3/sensor_Lab/50_3.csv

X,CH1,CH2,Start,Increment,
Sequence,Volt,Volt,-3.000000e-02,5.000000e-05
0,6.27e-01,1.92e+00,
1,5.71e-01,2.04e+00,
2,5.71e-01,2.00e+00,
3,6.38e-01,1.92e+00,
4,6.38e-01,2.00e+00,
5,5.71e-01,1.92e+00,
6,5.71e-01,2.00e+00,
7,6.38e-01,1.92e+00,
8,5.71e-01,1.92e+00,
9,6.27e-01,2.00e+00,
10,5.71e-01,1.92e+00,
11,6.38e-01,2.04e+00,
12,5.71e-01,1.92e+00,
13,6.27e-01,2.00e+00,
14,5.71e-01,2.00e+00,
15,6.27e-01,1.92e+00,
16,5.71e-01,2.00e+00,
17,6.27e-01,1.92e+00,
18,6.27e-01,1.92e+00,
19,5.71e-01,2.04e+00,
20,5.71e-01,2.00e+00,
21,6.38e-01,1.92e+00,
22,5.71e-01,2.00e+00,
23,6.50e-01,-4.00e-02,
24,5.82e-01,4.00e-02,
25,6.50e-01,-4.00e-02,
26,5.94e-01,-4.00e-02,
27,6.61e-01,4.00e-02,
28,6.16e-01,4.00e-02,
29,6.72e-01,-4.00e-02,
30,6.27e-01,4.00e-02,
31,6.94e-01,-4.00e-02,
32,6.94e-01,4.00e-02,
33,6.38e-01,-4.00e-02,
34,6.38e-01,-4.00e-02,
35,7.06e-01,4.00e-02,
36,6.50e-01,-4.00e-02,
37,7.17e-01,4.00e-02,
38,6.61e-01,4.00e-02,
39,7.28e-01,-4.00e-02,
40,7.28e-01,-4.00e-02,
41,6.72e-01,4.00e-02,
42,6.83e-01,0.00e+00,
43,7.39e-01,-4.00e-02,
44,6.83e-01,-4.00e-02,
45,7.39e-01,4.00e-02,
46,6.94e-01,-4.00e-02,
47,7.62e-01,4.00e-02,
48,7.06e-01,-4.00e-02,
49,7.62e-01,4.00e-02,
50,7.06e-01,-4.00e-02,
51,7.73e-01,4.00e-02,
52,7.17e-01,-4.00e-02,
53,7.84e-01,4.00e-02,
54,7.28e-01,4.00e-02,
55,7.84e-01,-4.00e-02,
56,7.28e-01,-4.00e-02,
57,7.95e-01,0.00e+00,
58,7.50e-01,-4.00e-02,
59,7.95e-01,4.00e-02,
60,7.39e-01,-4.00e-02,
61,8.06e-01,4.00e-02,
62,8.06e-01,4.00e-02,
63,7.62e-01,-4.00e-02,
64,7.62e-01,4.00e-02,
65,8.29e-01,-4.00e-02,
66,8.29e-01,-4.00e-02,
67,7.62e-01,4.00e-02,
68,7.73e-01,4.00e-02,
69,8.40e-01,-4.00e-02,
70,8.40e-01,4.00e-02,
71,7.84e-01,-4.00e-02,
72,7.84e-01,4.00e-02,
73,8.51e-01,-4.00e-02,
74,7.95e-01,4.00e-02,
75,8.51e-01,-4.00e-02,
76,8.51e-01,4.00e-02,
77,7.95e-01,-4.00e-02,
78,8.06e-01,-4.00e-02,
79,8.62e-01,4.00e-02,
80,8.18e-01,-4.00e-02,
81,8.62e-01,4.00e-02,
82,8.74e-01,-4.00e-02,
83,8.18e-01,4.00e-02,
84,8.74e-01,-4.00e-02,
85,8.18e-01,4.00e-02,
86,8.29e-01,-4.00e-02,
87,8.85e-01,4.00e-02,
88,8.96e-01,0.00e+00,
89,8.29e-01,-4.00e-02,
90,8.40e-01,0.00e+00,
91,9.07e-01,-4.00e-02,
92,9.07e-01,0.00e+00,
93,8.40e-01,-4.00e-02,
94,8.51e-01,-4.00e-02,
95,9.18e-01,4.00e-02,
96,8.51e-01,0.00e+00,
97,9.18e-01,-4.00e-02,
98,8.51e-01,-4.00e-02,
99,9.18e-01,4.00e-02,
100,8.62e-01,4.00e-02,
101,9.30e-01,-4.00e-02,
102,8.74e-01,4.00e-02,
103,9.30e-01,-4.00e-02,
104,8.85e-01,4.00e-02,
105,9.30e-01,-4.00e-02,
106,8.85e-01,4.00e-02,
107,9.41e-01,-4.00e-02,
108,8.96e-01,4.00e-02,
109,9.41e-01,-4.00e-02,
110,8.96e-01,4.00e-02,
111,9.52e-01,-4.00e-02,
112,8.96e-01,-4.00e-02,
113,9.63e-01,4.00e-02,
114,8.96e-01,4.00e-02,
115,9.63e-01,-4.00e-02,
116,9.63e-01,4.00e-02,
117,9.07e-01,-4.00e-02,
118,9.07e-01,-4.00e-02,
119,9.74e-01,4.00e-02,
120,9.74e-01,-4.00e-02,
121,9.18e-01,4.00e-02,
122,9.18e-01,-4.00e-02,
123,9.74e-01,4.00e-02,
124,9.18e-01,-4.00e-02,
125,9.86e-01,4.00e-02,
126,9.41e-01,-4.00e-02,
127,9.86e-01,4.00e-02,
128,9.41e-01,-4.00e-02,
129,9.97e-01,4.00e-02,
130,9.41e-01,0.00e+00,
131,9.97e-01,-4.00e-02,
132,9.41e-01,-4.00e-02,
133,9.97e-01,4.00e-02,
134,9.52e-01,4.00e-02,
135,9.97e-01,-4.00e-02,
136,9.97e-01,0.00e+00,
137,9.52e-01,-4.00e-02,
138,1.01e+00,-4.00e-02,
139,9.52e-01,4.00e-02,
140,9.63e-01,4.00e-02,
141,1.02e+00,-4.00e-02,
142,9.63e-01,-4.00e-02,
143,1.03e+00,4.00e-02,
144,9.63e-01,4.00e-02,
145,1.03e+00,-4.00e-02,
146,9.63e-01,4.00e-02,
147,1.03e+00,-4.00e-02,
148,9.74e-01,4.00e-02,
149,1.03e+00,-4.00e-02,
150,9.74e-01,-4.00e-02,
151,1.04e+00,4.00e-02,
152,1.04e+00,4.00e-02,
153,9.86e-01,-4.00e-02,
154,9.86e-01,4.00e-02,
155,1.04e+00,-4.00e-02,
156,9.86e-01,4.00e-02,
157,1.05e+00,-4.00e-02,
158,9.86e-01,4.00e-02,
159,1.05e+00,-4.00e-02,
160,1.01e+00,4.00e-02,
161,1.05e+00,-4.00e-02,
162,1.01e+00,-4.00e-02,
163,1.06e+00,0.00e+00,
164,1.01e+00,-4.00e-02,
165,1.06e+00,4.00e-02,
166,1.02e+00,-4.00e-02,
167,1.06e+00,4.00e-02,
168,1.06e+00,-4.00e-02,
169,1.02e+00,4.00e-02,
170,1.06e+00,-4.00e-02,
171,1.02e+00,4.00e-02,
172,1.08e+00,-4.00e-02,
173,1.02e+00,4.00e-02,
174,1.03e+00,-4.00e-02,
175,1.08e+00,0.00e+00,
176,1.03e+00,-4.00e-02,
177,1.08e+00,4.00e-02,
178,1.03e+00,-4.00e-02,
179,1.09e+00,4.00e-02,
180,1.03e+00,-4.00e-02,
181,1.09e+00,4.00e-02,
182,1.10e+00,-4.00e-02,
183,1.03e+00,4.00e-02,
184,1.10e+00,4.00e-02,
185,1.03e+00,-4.00e-02,
186,1.04e+00,4.00e-02,
187,1.10e+00,-4.00e-02,
188,1.04e+00,4.00e-02,
189,1.10e+00,-4.00e-02,
190,1.05e+00,4.00e-02,
191,1.11e+00,-4.00e-02,
192,1.11e+00,4.00e-02,
193,1.05e+00,-4.00e-02,
194,1.11e+00,4.00e-02,
195,1.05e+00,-4.00e-02,
196,1.11e+00,4.00e-02,
197,1.05e+00,-4.00e-02,
198,1.11e+00,4.00e-02,
199,1.05e+00,-4.00e-02,
200,1.08e+00,4.00e-02,
201,1.12e+00,-4.00e-02,
202,1.08e+00,-4.00e-02,
203,1.12e+00,4.00e-02,
204,1.12e+00,0.00e+00,
205,1.08e+00,-4.00e-02,
206,1.08e+00,-4.00e-02,
207,1.13e+00,0.00e+00,
208,1.09e+00,-4.00e-02,
209,1.13e+00,4.00e-02,
210,1.13e+00,-4.00e-02,
211,1.09e+00,4.00e-02,
212,1.09e+00,-4.00e-02,
213,1.13e+00,0.00e+00,
214,1.13e+00,-4.00e-02,
215,1.09e+00,4.00e-02,
216,1.09e+00,-4.00e-02,
217,1.14e+00,4.00e-02,
218,1.09e+00,-4.00e-02,
219,1.14e+00,4.00e-02,
220,1.15e+00,-4.00e-02,
221,1.10e+00,4.00e-02,
222,1.10e+00,-4.00e-02,
223,1.15e+00,4.00e-02,
224,1.19e+00,0.00e+00,
225,1.03e+00,2.48e+00,
226,1.08e+00,2.04e+00,
227,9.86e-01,1.96e+00,
228,1.03e+00,2.04e+00,
229,9.52e-01,1.96e+00,
230,9.97e-01,2.04e+00,
231,9.18e-01,1.96e+00,
232,9.74e-01,2.04e+00,
233,8.96e-01,1.96e+00,
234,9.52e-01,2.04e+00,
235,8.85e-01,1.96e+00,
236,9.30e-01,2.04e+00,
237,8.74e-01,1.92e+00,
238,9.07e-01,2.04e+00,
239,8.40e-01,1.96e+00,
240,8.96e-01,2.04e+00,
241,8.29e-01,1.96e+00,
242,8.85e-01,2.04e+00,
243,8.06e-01,1.96e+00,
244,8.62e-01,1.96e+00,
245,8.06e-01,2.04e+00,
246,8.51e-01,2.04e+00,
247,7.95e-01,1.96e+00,
248,8.40e-01,2.04e+00,
249,7.73e-01,1.96e+00,
250,8.40e-01,2.04e+00,
251,7.73e-01,1.96e+00,
252,8.29e-01,2.04e+00,
253,7.62e-01,2.00e+00,
254,8.06e-01,2.04e+00,
255,7.50e-01,1.96e+00,
256,8.06e-01,2.04e+00,
257,7.50e-01,1.96e+00,
258,7.95e-01,2.04e+00,
259,7.39e-01,1.96e+00,
260,7.84e-01,2.04e+00,
261,7.28e-01,1.92e+00,
262,7.84e-01,2.04e+00,
263,7.17e-01,1.92e+00,
264,7.17e-01,2.04e+00,
265,7.84e-01,1.96e+00,
266,7.73e-01,2.04e+00,
267,7.06e-01,1.96e+00,
268,7.06e-01,2.04e+00,
269,7.73e-01,1.96e+00,
270,7.62e-01,2.04e+00,
271,6.94e-01,1.96e+00,
272,7.39e-01,2.04e+00,
273,6.94e-01,1.96e+00,
274,7.39e-01,1.96e+00,
275,6.83e-01,2.04e+00,
276,7.39e-01,2.04e+00,
277,6.83e-01,1.92e+00,
278,6.83e-01,1.96e+00,
279,7.28e-01,2.04e+00,
280,7.28e-01,2.04e+00,
281,6.72e-01,1.96e+00,
282,7.28e-01,2.04e+00,
283,6.61e-01,1.96e+00,
284,7.28e-01,2.04e+00,
285,6.61e-01,2.00e+00,
286,7.17e-01,2.04e+00,
287,6.61e-01,2.00e+00,
288,6.61e-01,2.04e+00,
289,7.17e-01,1.96e+00,
290,7.17e-01,2.04e+00,
291,6.61e-01,1.96e+00,
292,7.17e-01,2.04e+00,
293,6.50e-01,2.00e+00,
294,7.06e-01,2.04e+00,
295,6.50e-01,1.96e+00,
296,6.50e-01,2.04e+00,
297,7.06e-01,1.96e+00,
298,6.38e-01,2.04e+00,
299,7.06e-01,1.96e+00,
300,6.94e-01,2.04e+00,
301,6.38e-01,1.96e+00,
302,6.94e-01,2.04e+00,
303,6.38e-01,1.92e+00,
304,6.38e-01,1.96e+00,
305,6.94e-01,2.04e+00,
306,6.94e-01,1.96e+00,
307,6.27e-01,2.04e+00,
308,6.27e-01,1.96e+00,
309,6.94e-01,2.04e+00,
310,6.27e-01,1.96e+00,
311,6.83e-01,2.04e+00,
312,6.94e-01,2.04e+00,
313,6.27e-01,1.96e+00,
314,6.72e-01,1.96e+00,
315,6.27e-01,2.04e+00,
316,6.27e-01,2.04e+00,
317,6.83e-01,1.92e+00,
318,6.72e-01,1.96e+00,
319,6.16e-01,2.04e+00,
320,6.72e-01,2.04e+00,
321,6.16e-01,1.92e+00,
322,6.16e-01,1.96e+00,
323,6.72e-01,2.04e+00,
324,6.72e-01,2.04e+00,
325,6.16e-01,1.96e+00,
326,6.16e-01,2.04e+00,
327,6.72e-01,1.92e+00,
328,6.16e-01,1.96e+00,
329,6.72e-01,2.04e+00,
330,6.16e-01,2.04e+00,
331,6.72e-01,1.92e+00,
332,6.16e-01,2.04e+00,
333,6.72e-01,1.92e+00,
334,6.05e-01,1.96e+00,
335,6.72e-01,2.04e+00,
336,6.05e-01,2.04e+00,
337,6.72e-01,1.92e+00,
338,6.61e-01,1.96e+00,
339,6.05e-01,2.04e+00,
340,6.05e-01,2.04e+00,
341,6.61e-01,1.92e+00,
342,6.61e-01,2.04e+00,
343,5.94e-01,1.92e+00,
344,6.61e-01,1.96e+00,
345,5.94e-01,2.04e+00,
346,6.61e-01,2.04e+00,
347,5.94e-01,1.92e+00,
348,5.94e-01,2.00e+00,
349,6.61e-01,1.92e+00,
350,5.94e-01,1.92e+00,
351,6.61e-01,2.04e+00,
352,6.50e-01,2.04e+00,
353,5.94e-01,1.92e+00,
354,6.50e-01,1.92e+00,
355,5.82e-01,2.04e+00,
356,6.50e-01,2.04e+00,
357,5.82e-01,1.92e+00,
358,6.50e-01,1.92e+00,
359,5.82e-01,2.04e+00,
360,6.50e-01,1.92e+00,
361,5.82e-01,2.04e+00,
362,6.50e-01,1.92e+00,
363,5.82e-01,2.04e+00,
364,6.50e-01,2.04e+00,
365,5.82e-01,1.92e+00,
366,6.50e-01,2.04e+00,
367,5.82e-01,1.92e+00,
368,6.50e-01,1.92e+00,
369,5.82e-01,2.04e+00,
370,5.82e-01,2.00e+00,
371,6.50e-01,1.92e+00,
372,5.82e-01,1.92e+00,
373,6.50e-01,2.00e+00,
374,5.82e-01,2.00e+00,
375,6.50e-01,1.92e+00,
376,5.82e-01,2.00e+00,
377,6.50e-01,1.92e+00,
378,5.82e-01,2.00e+00,
379,6.50e-01,1.92e+00,
380,6.50e-01,2.00e+00,
381,5.71e-01,1.92e+00,
382,5.82e-01,1.92e+00,
383,6.50e-01,2.04e+00,
384,5.82e-01,2.00e+00,
385,6.50e-01,1.92e+00,
386,6.50e-01,1.92e+00,
387,5.71e-01,2.00e+00,
388,5.82e-01,2.00e+00,
389,6.50e-01,1.92e+00,
390,6.38e-01,1.92e+00,
391,5.71e-01,2.04e+00,
392,6.38e-01,1.92e+00,
393,5.71e-01,2.04e+00,
394,5.71e-01,2.00e+00,
395,6.50e-01,1.92e+00,
396,5.71e-01,2.00e+00,
397,6.50e-01,1.92e+00,
398,6.50e-01,1.92e+00,
399,5.71e-01,2.04e+00,
400,6.38e-01,2.00e+00,
401,5.71e-01,1.92e+00,
402,6.38e-01,1.92e+00,
403,5.71e-01,2.00e+00,
404,6.38e-01,1.92e+00,
405,5.71e-01,2.00e+00,
406,5.71e-01,2.00e+00,
407,6.38e-01,1.92e+00,
408,5.71e-01,2.00e+00,
409,6.38e-01,1.92e+00,
410,5.71e-01,1.92e+00,
411,6.38e-01,2.00e+00,
412,5.71e-01,1.92e+00,
413,6.38e-01,2.00e+00,
414,5.71e-01,2.00e+00,
415,6.38e-01,1.92e+00,
416,6.38e-01,1.92e+00,
417,5.71e-01,2.04e+00,
418,5.71e-01,1.92e+00,
419,6.38e-01,2.00e+00,
420,5.71e-01,2.00e+00,
421,6.38e-01,1.92e+00,
422,5.71e-01,2.00e+00,
423,6.38e-01,1.92e+00,
424,5.71e-01,2.00e+00,
425,6.38e-01,-4.00e-02,
426,5.94e-01,4.00e-02,
427,6.61e-01,-4.00e-02,
428,6.16e-01,4.00e-02,
429,6.72e-01,-4.00e-02,
430,6.16e-01,-4.00e-02,
431,6.83e-01,4.00e-02,
432,6.38e-01,4.00e-02,
433,6.94e-01,-4.00e-02,
434,6.38e-01,4.00e-02,
435,7.06e-01,-4.00e-02,
436,6.50e-01,4.00e-02,
437,7.06e-01,-4.00e-02,
438,6.50e-01,4.00e-02,
439,7.17e-01,-4.00e-02,
440,6.72e-01,4.00e-02,
441,7.28e-01,-4.00e-02,
442,6.83e-01,-4.00e-02,
443,7.39e-01,4.00e-02,
444,6.83e-01,-4.00e-02,
445,7.39e-01,4.00e-02,
446,6.94e-01,4.00e-02,
447,7.50e-01,-4.00e-02,
448,6.94e-01,-4.00e-02,
449,7.73e-01,4.00e-02,
450,7.06e-01,-4.00e-02,
451,7.73e-01,4.00e-02,
452,7.73e-01,-4.00e-02,
453,7.17e-01,4.00e-02,
454,7.28e-01,4.00e-02,
455,7.84e-01,-4.00e-02,
456,7.84e-01,0.00e+00,
457,7.28e-01,-4.00e-02,
458,7.39e-01,-4.00e-02,
459,7.95e-01,4.00e-02,
460,7.50e-01,4.00e-02,
461,8.06e-01,-4.00e-02,
462,8.06e-01,4.00e-02,
463,7.50e-01,-4.00e-02,
464,8.06e-01,4.00e-02,
465,7.62e-01,-4.00e-02,
466,7.62e-01,4.00e-02,
467,8.29e-01,-4.00e-02,
468,7.73e-01,4.00e-02,
469,8.29e-01,-4.00e-02,
470,7.73e-01,4.00e-02,
471,8.40e-01,-4.00e-02,
472,8.40e-01,4.00e-02,
473,7.84e-01,-4.00e-02,
474,7.84e-01,-4.00e-02,
475,8.51e-01,4.00e-02,
476,8.06e-01,4.00e-02,
477,8.51e-01,-4.00e-02,
478,8.51e-01,-4.00e-02,
479,7.95e-01,4.00e-02,
480,8.06e-01,4.00e-02,
481,8.62e-01,-4.00e-02,
482,8.62e-01,0.00e+00,
483,8.18e-01,-4.00e-02,
484,8.29e-01,-4.00e-02,
485,8.74e-01,4.00e-02,
486,8.29e-01,-4.00e-02,
487,8.85e-01,0.00e+00,
488,8.85e-01,-4.00e-02,
489,8.29e-01,4.00e-02,
490,8.40e-01,-4.00e-02,
491,8.96e-01,4.00e-02,
492,8.40e-01,-4.00e-02,
493,8.96e-01,4.00e-02,
494,8.40e-01,-4.00e-02,
495,9.07e-01,4.00e-02,
496,9.07e-01,-4.00e-02,
497,8.51e-01,4.00e-02,
498,8.62e-01,-4.00e-02,
499,9.18e-01,4.00e-02,
500,8.74e-01,4.00e-02,
501,9.18e-01,-4.00e-02,
502,9.18e-01,4.00e-02,
503,8.74e-01,-4.00e-02,
504,9.30e-01,4.00e-02,
505,8.74e-01,-4.00e-02,
506,8.85e-01,-4.00e-02,
507,9.30e-01,4.00e-02,
508,8.85e-01,-4.00e-02,
509,9.52e-01,4.00e-02,
510,8.96e-01,-4.00e-02,
511,9.41e-01,4.00e-02,
512,8.96e-01,4.00e-02,
513,9.52e-01,-4.00e-02,
514,9.41e-01,4.00e-02,
515,8.96e-01,-4.00e-02,
516,9.07e-01,4.00e-02,
517,9.63e-01,-4.00e-02,
518,9.63e-01,4.00e-02,
519,9.07e-01,-4.00e-02,
520,9.74e-01,4.00e-02,
521,9.07e-01,-4.00e-02,
522,9.74e-01,-4.00e-02,
523,9.07e-01,0.00e+00,
524,9.74e-01,0.00e+00,
525,9.18e-01,-4.00e-02,
526,9.18e-01,0.00e+00,
527,9.86e-01,-4.00e-02,
528,9.41e-01,-4.00e-02,
529,9.86e-01,4.00e-02,
530,9.41e-01,0.00e+00,
531,9.86e-01,-4.00e-02,
532,9.41e-01,-4.00e-02,
533,9.97e-01,4.00e-02,
534,9.97e-01,0.00e+00,
535,9.41e-01,-4.00e-02,
536,9.41e-01,0.00e+00,
537,9.97e-01,-4.00e-02,
538,9.52e-01,-4.00e-02,
539,1.01e+00,4.00e-02,
540,9.63e-01,4.00e-02,
541,1.01e+00,-4.00e-02,
542,9.63e-01,-4.00e-02,
543,1.02e+00,4.00e-02,
544,9.63e-01,4.00e-02,
545,1.02e+00,-4.00e-02,
546,9.63e-01,4.00e-02,
547,1.03e+00,-4.00e-02,
548,1.03e+00,-4.00e-02,
549,9.74e-01,4.00e-02,
550,1.03e+00,4.00e-02,
551,9.74e-01,-4.00e-02,
552,1.03e+00,4.00e-02,
553,9.74e-01,-4.00e-02,
554,9.86e-01,4.00e-02,
555,1.04e+00,-4.00e-02,
556,1.04e+00,4.00e-02,
557,9.86e-01,-4.00e-02,
558,9.86e-01,4.00e-02,
559,1.04e+00,-4.00e-02,
560,1.01e+00,-4.00e-02,
561,1.05e+00,4.00e-02,
562,1.01e+00,-4.00e-02,
563,1.05e+00,4.00e-02,
564,1.05e+00,8.00e-02,
565,1.01e+00,-4.00e-02,
566,1.01e+00,-4.00e-02,
567,1.06e+00,0.00e+00,
568,1.02e+00,-4.00e-02,
569,1.06e+00,4.00e-02,
570,1.02e+00,-4.00e-02,
571,1.06e+00,4.00e-02,
572,1.06e+00,-4.00e-02,
573,1.02e+00,4.00e-02,
574,1.06e+00,4.00e-02,
575,1.02e+00,-4.00e-02,
576,1.03e+00,0.00e+00,
577,1.09e+00,-4.00e-02,
578,1.03e+00,-4.00e-02,
579,1.09e+00,4.00e-02,
580,1.03e+00,-4.00e-02,
581,1.09e+00,4.00e-02,
582,1.03e+00,4.00e-02,
583,1.10e+00,-4.00e-02,
584,1.04e+00,4.00e-02,
585,1.10e+00,-4.00e-02,
586,1.10e+00,4.00e-02,
587,1.04e+00,-4.00e-02,
588,1.04e+00,-4.00e-02,
589,1.10e+00,4.00e-02,
590,1.05e+00,4.00e-02,
591,1.11e+00,-4.00e-02,
592,1.04e+00,4.00e-02,
593,1.11e+00,-4.00e-02,
594,1.11e+00,4.00e-02,
595,1.05e+00,-4.00e-02,
596,1.11e+00,4.00e-02,
597,1.05e+00,-4.00e-02,
598,1.11e+00,-4.00e-02,
599,1.05e+00,4.00e-02,
600,1.12e+00,4.00e-02,
601,1.06e+00,-4.00e-02,
602,1.08e+00,4.00e-02,
603,1.12e+00,-4.00e-02,
604,1.06e+00,-4.00e-02,
605,1.13e+00,4.00e-02,
606,1.08e+00,-4.00e-02,
607,1.13e+00,4.00e-02,
608,1.09e+00,-4.00e-02,
609,1.13e+00,4.00e-02,
610,1.09e+00,0.00e+00,
611,1.13e+00,-4.00e-02,
612,1.09e+00,-4.00e-02,
613,1.13e+00,0.00e+00,
614,1.09e+00,0.00e+00,
615,1.14e+00,-4.00e-02,
616,1.14e+00,-4.00e-02,
617,1.09e+00,0.00e+00,
618,1.10e+00,-4.00e-02,
619,1.14e+00,4.00e-02,
620,1.10e+00,4.00e-02,
621,1.15e+00,-4.00e-02,
622,1.10e+00,-4.00e-02,
623,1.15e+00,4.00e-02,
624,1.21e+00,-4.00e-02,
625,1.09e+00,2.40e+00,
626,1.12e+00,1.96e+00,
627,1.02e+00,2.04e+00,
628,1.06e+00,2.04e+00,
629,9.74e-01,1.96e+00,
630,1.02e+00,2.04e+00,
631,9.41e-01,1.96e+00,
632,9.86e-01,1.96e+00,
633,9.18e-01,2.04e+00,
634,9.74e-01,1.96e+00,
635,8.96e-01,2.04e+00,
636,9.52e-01,2.04e+00,
637,8.74e-01,1.96e+00,
638,9.30e-01,2.04e+00,
639,8.62e-01,1.96e+00,
640,9.07e-01,2.04e+00,
641,8.40e-01,1.96e+00,
642,8.96e-01,2.04e+00,
643,8.29e-01,1.96e+00,
644,8.74e-01,2.04e+00,
645,8.06e-01,1.92e+00,
646,8.51e-01,2.04e+00,
647,8.06e-01,1.96e+00,
648,8.51e-01,2.04e+00,
649,7.95e-01,1.96e+00,
650,8.40e-01,2.04e+00,
651,7.73e-01,1.92e+00,
652,8.29e-01,2.04e+00,
653,7.62e-01,1.96e+00,
654,8.29e-01,2.04e+00,
655,7.62e-01,1.96e+00,
656,8.06e-01,2.04e+00,
657,7.50e-01,1.96e+00,
658,7.95e-01,2.04e+00,
659,7.50e-01,1.96e+00,
660,7.95e-01,2.04e+00,
661,7.28e-01,1.96e+00,
662,7.84e-01,2.04e+00,
663,7.28e-01,1.96e+00,
664,7.84e-01,2.04e+00,
665,7.17e-01,1.96e+00,
666,7.84e-01,2.04e+00,
667,7.06e-01,1.96e+00,
668,7.73e-01,2.04e+00,
669,7.06e-01,1.96e+00,
670,7.06e-01,2.04e+00,
671,7.73e-01,1.96e+00,
672,7.62e-01,2.04e+00,
673,6.94e-01,1.96e+00,
674,6.94e-01,2.04e+00,
675,7.50e-01,1.96e+00,
676,7.39e-01,2.04e+00,
677,6.83e-01,1.92e+00,
678,7.39e-01,1.96e+00,
679,6.83e-01,2.04e+00,
680,6.83e-01,1.96e+00,
681,7.39e-01,2.04e+00,
682,7.28e-01,2.04e+00,
683,6.72e-01,1.96e+00,
684,7.28e-01,2.04e+00,
685,6.61e-01,1.92e+00,
686,7.28e-01,2.04e+00,
687,6.61e-01,1.96e+00,
688,6.61e-01,2.04e+00,
689,7.28e-01,1.96e+00,
690,7.17e-01,2.04e+00,
691,6.61e-01,1.96e+00,
692,7.17e-01,2.04e+00,
693,6.61e-01,1.96e+00,
694,7.17e-01,2.04e+00,
695,6.50e-01,1.96e+00,
696,6.50e-01,2.04e+00,
697,7.17e-01,1.96e+00,
698,7.17e-01,2.04e+00,
699,6.38e-01,1.96e+00,
700,7.06e-01,2.04e+00,
701,6.38e-01,1.92e+00,
702,7.06e-01,2.04e+00,
703,6.38e-01,1.96e+00,
704,6.38e-01,1.96e+00,
705,6.94e-01,2.04e+00,
706,6.38e-01,2.04e+00,
707,6.94e-01,1.92e+00,
708,6.38e-01,2.04e+00,
709,6.94e-01,1.92e+00,
710,6.94e-01,2.04e+00,
711,6.27e-01,1.92e+00,
712,6.27e-01,1.96e+00,
713,6.94e-01,2.04e+00,
714,6.27e-01,2.04e+00,
715,6.94e-01,1.96e+00,
716,6.94e-01,2.04e+00,
717,6.27e-01,1.92e+00,
718,6.27e-01,2.04e+00,
719,6.83e-01,1.92e+00,
720,6.27e-01,2.04e+00,
721,6.94e-01,1.92e+00,
722,6.72e-01,1.96e+00,
723,6.16e-01,2.04e+00,
724,6.72e-01,1.96e+00,
725,6.16e-01,2.04e+00,
726,6.16e-01,2.04e+00,
727,6.83e-01,1.92e+00,
728,6.72e-01,2.04e+00,
729,6.16e-01,1.92e+00,
730,6.16e-01,2.04e+00,
731,6.72e-01,1.92e+00,
732,6.16e-01,1.92e+00,
733,6.72e-01,2.04e+00,
734,6.16e-01,2.04e+00,
735,6.72e-01,1.92e+00,
736,6.16e-01,2.04e+00,
737,6.72e-01,1.92e+00,
738,6.16e-01,2.04e+00,
739,6.72e-01,1.92e+00,
740,6.61e-01,1.92e+00,
741,6.05e-01,2.04e+00,
742,6.61e-01,2.04e+00,
743,6.05e-01,1.92e+00,
744,6.16e-01,1.92e+00,
745,6.61e-01,2.04e+00,
746,6.05e-01,1.92e+00,
747,6.61e-01,2.00e+00,
748,6.61e-01,1.92e+00,
749,6.05e-01,2.04e+00,
750,6.61e-01,2.04e+00,
751,5.94e-01,1.92e+00,
752,6.50e-01,1.92e+00,
753,5.94e-01,2.04e+00,
754,5.82e-01,1.92e+00,
755,6.61e-01,2.04e+00,
756,5.94e-01,1.92e+00,
757,6.61e-01,2.04e+00,
758,6.50e-01,2.00e+00,
759,5.94e-01,1.92e+00,
760,6.50e-01,2.00e+00,
761,5.94e-01,1.92e+00,
762,6.50e-01,1.92e+00,
763,5.82e-01,2.00e+00,
764,6.50e-01,1.92e+00,
765,5.82e-01,2.00e+00,
766,5.82e-01,1.92e+00,
767,6.50e-01,2.04e+00,
768,6.50e-01,1.92e+00,
769,5.82e-01,2.00e+00,
770,6.50e-01,2.00e+00,
771,5.82e-01,1.92e+00,
772,6.50e-01,1.92e+00,
773,5.82e-01,2.00e+00,
774,6.50e-01,1.92e+00,
775,5.82e-01,2.04e+00,
776,6.50e-01,2.04e+00,
777,5.82e-01,1.92e+00,
778,5.82e-01,1.92e+00,
779,6.50e-01,2.04e+00,
780,5.82e-01,2.00e+00,
781,6.50e-01,1.92e+00,
782,6.50e-01,2.00e+00,
783,5.82e-01,1.92e+00,
784,5.82e-01,2.00e+00,
785,6.50e-01,1.92e+00,
786,5.82e-01,2.00e+00,
787,6.50e-01,1.92e+00,
788,6.38e-01,2.00e+00,
789,5.82e-01,1.92e+00,
790,6.38e-01,2.00e+00,
791,5.71e-01,1.92e+00,
792,6.50e-01,2.00e+00,
793,5.71e-01,1.92e+00,
794,5.82e-01,2.00e+00,
795,6.38e-01,1.92e+00,
796,6.50e-01,2.00e+00,
797,5.71e-01,1.92e+00,
798,6.38e-01,1.92e+00,
799,5.71e-01,2.00e+00,
800,6.38e-01,1.92e+00,
801,5.71e-01,2.00e+00,
802,5.82e-01,1.92e+00,
803,6.38e-01,2.04e+00,
804,5.71e-01,1.92e+00,
805,6.50e-01,2.04e+00,
806,5.82e-01,1.92e+00,
807,6.38e-01,2.00e+00,
808,5.71e-01,2.00e+00,
809,6.38e-01,1.92e+00,
810,6.38e-01,1.92e+00,
811,5.71e-01,2.04e+00,
812,5.71e-01,1.92e+00,
813,6.38e-01,2.00e+00,
814,5.71e-01,1.92e+00,
815,6.38e-01,2.04e+00,
816,5.71e-01,2.00e+00,
817,6.27e-01,1.92e+00,
818,5.71e-01,1.92e+00,
819,6.38e-01,2.00e+00,
820,5.71e-01,1.92e+00,
821,6.27e-01,2.04e+00,
822,5.71e-01,1.92e+00,
823,6.38e-01,2.00e+00,
824,5.71e-01,2.00e+00,
825,6.27e-01,1.92e+00,
826,5.71e-01,2.00e+00,
827,6.50e-01,-4.00e-02,
828,5.94e-01,-4.00e-02,
829,6.61e-01,4.00e-02,
830,6.16e-01,4.00e-02,
831,6.72e-01,-4.00e-02,
832,6.16e-01,-4.00e-02,
833,6.94e-01,8.00e-02,
834,6.94e-01,-4.00e-02,
835,6.38e-01,4.00e-02,
836,6.38e-01,-4.00e-02,
837,7.06e-01,8.00e-02,
838,6.50e-01,4.00e-02,
839,7.17e-01,-4.00e-02,
840,7.17e-01,-4.00e-02,
841,6.61e-01,4.00e-02,
842,6.72e-01,-4.00e-02,
843,7.28e-01,4.00e-02,
844,6.83e-01,-4.00e-02,
845,7.39e-01,4.00e-02,
846,6.83e-01,-4.00e-02,
847,7.62e-01,8.00e-02,
848,6.94e-01,4.00e-02,
849,7.50e-01,-4.00e-02,
850,7.06e-01,-4.00e-02,
851,7.62e-01,8.00e-02,
852,7.06e-01,-4.00e-02,
853,7.73e-01,4.00e-02,
854,7.73e-01,-4.00e-02,
855,7.06e-01,4.00e-02,
856,7.17e-01,-4.00e-02,
857,7.84e-01,0.00e+00,
858,7.84e-01,-4.00e-02,
859,7.28e-01,4.00e-02,
860,7.39e-01,-4.00e-02,
